<?xml version="1.0" encoding="utf-8" standalone="no"?>
<!DOCTYPE svg PUBLIC "-//W3C//DTD SVG 1.1//EN"
  "http://www.w3.org/Graphics/SVG/1.1/DTD/svg11.dtd">
<!-- Created with matplotlib (http://matplotlib.org/) -->
<svg height="345pt" version="1.1" viewBox="0 0 460 345" width="460pt" xmlns="http://www.w3.org/2000/svg" xmlns:xlink="http://www.w3.org/1999/xlink">
 <defs>
  <style type="text/css">
*{stroke-linecap:butt;stroke-linejoin:round;}
  </style>
 </defs>
 <g id="figure_1">
  <g id="patch_1">
   <path d="M 0 345.6 
L 460.8 345.6 
L 460.8 0 
L 0 0 
z
" style="fill:#ffffff;"/>
  </g>
  <g id="axes_1">
   <g id="patch_2">
    <path d="M 57.6 307.584 
L 414.72 307.584 
L 414.72 41.472 
L 57.6 41.472 
z
" style="fill:#ffffff;"/>
   </g>
   <g id="matplotlib.axis_1">
    <g id="xtick_1">
     <g id="line2d_1">
      <defs>
       <path d="M 0 0 
L 0 3.5 
" id="md2efb9457d" style="stroke:#000000;stroke-width:0.8;"/>
      </defs>
      <g>
       <use style="stroke:#000000;stroke-width:0.8;" x="57.6" xlink:href="#md2efb9457d" y="307.584"/>
      </g>
     </g>
     <g id="text_1">
      <!-- $\mathdefault{10^{0}}$ -->
      <defs>
       <path d="M 12.40625 8.296875 
L 28.515625 8.296875 
L 28.515625 63.921875 
L 10.984375 60.40625 
L 10.984375 69.390625 
L 28.421875 72.90625 
L 38.28125 72.90625 
L 38.28125 8.296875 
L 54.390625 8.296875 
L 54.390625 0 
L 12.40625 0 
z
" id="DejaVuSans-31"/>
       <path d="M 31.78125 66.40625 
Q 24.171875 66.40625 20.328125 58.90625 
Q 16.5 51.421875 16.5 36.375 
Q 16.5 21.390625 20.328125 13.890625 
Q 24.171875 6.390625 31.78125 6.390625 
Q 39.453125 6.390625 43.28125 13.890625 
Q 47.125 21.390625 47.125 36.375 
Q 47.125 51.421875 43.28125 58.90625 
Q 39.453125 66.40625 31.78125 66.40625 
z
M 31.78125 74.21875 
Q 44.046875 74.21875 50.515625 64.515625 
Q 56.984375 54.828125 56.984375 36.375 
Q 56.984375 17.96875 50.515625 8.265625 
Q 44.046875 -1.421875 31.78125 -1.421875 
Q 19.53125 -1.421875 13.0625 8.265625 
Q 6.59375 17.96875 6.59375 36.375 
Q 6.59375 54.828125 13.0625 64.515625 
Q 19.53125 74.21875 31.78125 74.21875 
z
" id="DejaVuSans-30"/>
      </defs>
      <g transform="translate(47.04 323.702125)scale(0.12 -0.12)">
       <use transform="translate(0 0.765625)" xlink:href="#DejaVuSans-31"/>
       <use transform="translate(63.623047 0.765625)" xlink:href="#DejaVuSans-30"/>
       <use transform="translate(128.203125 39.046875)scale(0.7)" xlink:href="#DejaVuSans-30"/>
      </g>
     </g>
    </g>
    <g id="xtick_2">
     <g id="line2d_2">
      <g>
       <use style="stroke:#000000;stroke-width:0.8;" x="112.498043" xlink:href="#md2efb9457d" y="307.584"/>
      </g>
     </g>
     <g id="text_2">
      <!-- $\mathdefault{10^{1}}$ -->
      <g transform="translate(101.938043 323.702125)scale(0.12 -0.12)">
       <use transform="translate(0 0.684375)" xlink:href="#DejaVuSans-31"/>
       <use transform="translate(63.623047 0.684375)" xlink:href="#DejaVuSans-30"/>
       <use transform="translate(128.203125 38.965625)scale(0.7)" xlink:href="#DejaVuSans-31"/>
      </g>
     </g>
    </g>
    <g id="xtick_3">
     <g id="line2d_3">
      <g>
       <use style="stroke:#000000;stroke-width:0.8;" x="167.396085" xlink:href="#md2efb9457d" y="307.584"/>
      </g>
     </g>
     <g id="text_3">
      <!-- $\mathdefault{10^{2}}$ -->
      <defs>
       <path d="M 19.1875 8.296875 
L 53.609375 8.296875 
L 53.609375 0 
L 7.328125 0 
L 7.328125 8.296875 
Q 12.9375 14.109375 22.625 23.890625 
Q 32.328125 33.6875 34.8125 36.53125 
Q 39.546875 41.84375 41.421875 45.53125 
Q 43.3125 49.21875 43.3125 52.78125 
Q 43.3125 58.59375 39.234375 62.25 
Q 35.15625 65.921875 28.609375 65.921875 
Q 23.96875 65.921875 18.8125 64.3125 
Q 13.671875 62.703125 7.8125 59.421875 
L 7.8125 69.390625 
Q 13.765625 71.78125 18.9375 73 
Q 24.125 74.21875 28.421875 74.21875 
Q 39.75 74.21875 46.484375 68.546875 
Q 53.21875 62.890625 53.21875 53.421875 
Q 53.21875 48.921875 51.53125 44.890625 
Q 49.859375 40.875 45.40625 35.40625 
Q 44.1875 33.984375 37.640625 27.21875 
Q 31.109375 20.453125 19.1875 8.296875 
z
" id="DejaVuSans-32"/>
      </defs>
      <g transform="translate(156.836085 323.702125)scale(0.12 -0.12)">
       <use transform="translate(0 0.765625)" xlink:href="#DejaVuSans-31"/>
       <use transform="translate(63.623047 0.765625)" xlink:href="#DejaVuSans-30"/>
       <use transform="translate(128.203125 39.046875)scale(0.7)" xlink:href="#DejaVuSans-32"/>
      </g>
     </g>
    </g>
    <g id="xtick_4">
     <g id="line2d_4">
      <g>
       <use style="stroke:#000000;stroke-width:0.8;" x="222.294128" xlink:href="#md2efb9457d" y="307.584"/>
      </g>
     </g>
     <g id="text_4">
      <!-- $\mathdefault{10^{3}}$ -->
      <defs>
       <path d="M 40.578125 39.3125 
Q 47.65625 37.796875 51.625 33 
Q 55.609375 28.21875 55.609375 21.1875 
Q 55.609375 10.40625 48.1875 4.484375 
Q 40.765625 -1.421875 27.09375 -1.421875 
Q 22.515625 -1.421875 17.65625 -0.515625 
Q 12.796875 0.390625 7.625 2.203125 
L 7.625 11.71875 
Q 11.71875 9.328125 16.59375 8.109375 
Q 21.484375 6.890625 26.8125 6.890625 
Q 36.078125 6.890625 40.9375 10.546875 
Q 45.796875 14.203125 45.796875 21.1875 
Q 45.796875 27.640625 41.28125 31.265625 
Q 36.765625 34.90625 28.71875 34.90625 
L 20.21875 34.90625 
L 20.21875 43.015625 
L 29.109375 43.015625 
Q 36.375 43.015625 40.234375 45.921875 
Q 44.09375 48.828125 44.09375 54.296875 
Q 44.09375 59.90625 40.109375 62.90625 
Q 36.140625 65.921875 28.71875 65.921875 
Q 24.65625 65.921875 20.015625 65.03125 
Q 15.375 64.15625 9.8125 62.3125 
L 9.8125 71.09375 
Q 15.4375 72.65625 20.34375 73.4375 
Q 25.25 74.21875 29.59375 74.21875 
Q 40.828125 74.21875 47.359375 69.109375 
Q 53.90625 64.015625 53.90625 55.328125 
Q 53.90625 49.265625 50.4375 45.09375 
Q 46.96875 40.921875 40.578125 39.3125 
z
" id="DejaVuSans-33"/>
      </defs>
      <g transform="translate(211.734128 323.702125)scale(0.12 -0.12)">
       <use transform="translate(0 0.765625)" xlink:href="#DejaVuSans-31"/>
       <use transform="translate(63.623047 0.765625)" xlink:href="#DejaVuSans-30"/>
       <use transform="translate(128.203125 39.046875)scale(0.7)" xlink:href="#DejaVuSans-33"/>
      </g>
     </g>
    </g>
    <g id="xtick_5">
     <g id="line2d_5">
      <g>
       <use style="stroke:#000000;stroke-width:0.8;" x="277.19217" xlink:href="#md2efb9457d" y="307.584"/>
      </g>
     </g>
     <g id="text_5">
      <!-- $\mathdefault{10^{4}}$ -->
      <defs>
       <path d="M 37.796875 64.3125 
L 12.890625 25.390625 
L 37.796875 25.390625 
z
M 35.203125 72.90625 
L 47.609375 72.90625 
L 47.609375 25.390625 
L 58.015625 25.390625 
L 58.015625 17.1875 
L 47.609375 17.1875 
L 47.609375 0 
L 37.796875 0 
L 37.796875 17.1875 
L 4.890625 17.1875 
L 4.890625 26.703125 
z
" id="DejaVuSans-34"/>
      </defs>
      <g transform="translate(266.63217 323.702125)scale(0.12 -0.12)">
       <use transform="translate(0 0.684375)" xlink:href="#DejaVuSans-31"/>
       <use transform="translate(63.623047 0.684375)" xlink:href="#DejaVuSans-30"/>
       <use transform="translate(128.203125 38.965625)scale(0.7)" xlink:href="#DejaVuSans-34"/>
      </g>
     </g>
    </g>
    <g id="xtick_6">
     <g id="line2d_6">
      <g>
       <use style="stroke:#000000;stroke-width:0.8;" x="332.090213" xlink:href="#md2efb9457d" y="307.584"/>
      </g>
     </g>
     <g id="text_6">
      <!-- $\mathdefault{10^{5}}$ -->
      <defs>
       <path d="M 10.796875 72.90625 
L 49.515625 72.90625 
L 49.515625 64.59375 
L 19.828125 64.59375 
L 19.828125 46.734375 
Q 21.96875 47.46875 24.109375 47.828125 
Q 26.265625 48.1875 28.421875 48.1875 
Q 40.625 48.1875 47.75 41.5 
Q 54.890625 34.8125 54.890625 23.390625 
Q 54.890625 11.625 47.5625 5.09375 
Q 40.234375 -1.421875 26.90625 -1.421875 
Q 22.3125 -1.421875 17.546875 -0.640625 
Q 12.796875 0.140625 7.71875 1.703125 
L 7.71875 11.625 
Q 12.109375 9.234375 16.796875 8.0625 
Q 21.484375 6.890625 26.703125 6.890625 
Q 35.15625 6.890625 40.078125 11.328125 
Q 45.015625 15.765625 45.015625 23.390625 
Q 45.015625 31 40.078125 35.4375 
Q 35.15625 39.890625 26.703125 39.890625 
Q 22.75 39.890625 18.8125 39.015625 
Q 14.890625 38.140625 10.796875 36.28125 
z
" id="DejaVuSans-35"/>
      </defs>
      <g transform="translate(321.530213 323.702125)scale(0.12 -0.12)">
       <use transform="translate(0 0.684375)" xlink:href="#DejaVuSans-31"/>
       <use transform="translate(63.623047 0.684375)" xlink:href="#DejaVuSans-30"/>
       <use transform="translate(128.203125 38.965625)scale(0.7)" xlink:href="#DejaVuSans-35"/>
      </g>
     </g>
    </g>
    <g id="xtick_7">
     <g id="line2d_7">
      <g>
       <use style="stroke:#000000;stroke-width:0.8;" x="386.988255" xlink:href="#md2efb9457d" y="307.584"/>
      </g>
     </g>
     <g id="text_7">
      <!-- $\mathdefault{10^{6}}$ -->
      <defs>
       <path d="M 33.015625 40.375 
Q 26.375 40.375 22.484375 35.828125 
Q 18.609375 31.296875 18.609375 23.390625 
Q 18.609375 15.53125 22.484375 10.953125 
Q 26.375 6.390625 33.015625 6.390625 
Q 39.65625 6.390625 43.53125 10.953125 
Q 47.40625 15.53125 47.40625 23.390625 
Q 47.40625 31.296875 43.53125 35.828125 
Q 39.65625 40.375 33.015625 40.375 
z
M 52.59375 71.296875 
L 52.59375 62.3125 
Q 48.875 64.0625 45.09375 64.984375 
Q 41.3125 65.921875 37.59375 65.921875 
Q 27.828125 65.921875 22.671875 59.328125 
Q 17.53125 52.734375 16.796875 39.40625 
Q 19.671875 43.65625 24.015625 45.921875 
Q 28.375 48.1875 33.59375 48.1875 
Q 44.578125 48.1875 50.953125 41.515625 
Q 57.328125 34.859375 57.328125 23.390625 
Q 57.328125 12.15625 50.6875 5.359375 
Q 44.046875 -1.421875 33.015625 -1.421875 
Q 20.359375 -1.421875 13.671875 8.265625 
Q 6.984375 17.96875 6.984375 36.375 
Q 6.984375 53.65625 15.1875 63.9375 
Q 23.390625 74.21875 37.203125 74.21875 
Q 40.921875 74.21875 44.703125 73.484375 
Q 48.484375 72.75 52.59375 71.296875 
z
" id="DejaVuSans-36"/>
      </defs>
      <g transform="translate(376.428255 323.702125)scale(0.12 -0.12)">
       <use transform="translate(0 0.765625)" xlink:href="#DejaVuSans-31"/>
       <use transform="translate(63.623047 0.765625)" xlink:href="#DejaVuSans-30"/>
       <use transform="translate(128.203125 39.046875)scale(0.7)" xlink:href="#DejaVuSans-36"/>
      </g>
     </g>
    </g>
    <g id="xtick_8">
     <g id="line2d_8">
      <defs>
       <path d="M 0 0 
L 0 2 
" id="m87720c4532" style="stroke:#000000;stroke-width:0.6;"/>
      </defs>
      <g>
       <use style="stroke:#000000;stroke-width:0.6;" x="74.125957" xlink:href="#m87720c4532" y="307.584"/>
      </g>
     </g>
    </g>
    <g id="xtick_9">
     <g id="line2d_9">
      <g>
       <use style="stroke:#000000;stroke-width:0.6;" x="83.793023" xlink:href="#m87720c4532" y="307.584"/>
      </g>
     </g>
    </g>
    <g id="xtick_10">
     <g id="line2d_10">
      <g>
       <use style="stroke:#000000;stroke-width:0.6;" x="90.651915" xlink:href="#m87720c4532" y="307.584"/>
      </g>
     </g>
    </g>
    <g id="xtick_11">
     <g id="line2d_11">
      <g>
       <use style="stroke:#000000;stroke-width:0.6;" x="95.972085" xlink:href="#m87720c4532" y="307.584"/>
      </g>
     </g>
    </g>
    <g id="xtick_12">
     <g id="line2d_12">
      <g>
       <use style="stroke:#000000;stroke-width:0.6;" x="100.31898" xlink:href="#m87720c4532" y="307.584"/>
      </g>
     </g>
    </g>
    <g id="xtick_13">
     <g id="line2d_13">
      <g>
       <use style="stroke:#000000;stroke-width:0.6;" x="103.994228" xlink:href="#m87720c4532" y="307.584"/>
      </g>
     </g>
    </g>
    <g id="xtick_14">
     <g id="line2d_14">
      <g>
       <use style="stroke:#000000;stroke-width:0.6;" x="107.177872" xlink:href="#m87720c4532" y="307.584"/>
      </g>
     </g>
    </g>
    <g id="xtick_15">
     <g id="line2d_15">
      <g>
       <use style="stroke:#000000;stroke-width:0.6;" x="109.986046" xlink:href="#m87720c4532" y="307.584"/>
      </g>
     </g>
    </g>
    <g id="xtick_16">
     <g id="line2d_16">
      <g>
       <use style="stroke:#000000;stroke-width:0.6;" x="129.024" xlink:href="#m87720c4532" y="307.584"/>
      </g>
     </g>
    </g>
    <g id="xtick_17">
     <g id="line2d_17">
      <g>
       <use style="stroke:#000000;stroke-width:0.6;" x="138.691065" xlink:href="#m87720c4532" y="307.584"/>
      </g>
     </g>
    </g>
    <g id="xtick_18">
     <g id="line2d_18">
      <g>
       <use style="stroke:#000000;stroke-width:0.6;" x="145.549957" xlink:href="#m87720c4532" y="307.584"/>
      </g>
     </g>
    </g>
    <g id="xtick_19">
     <g id="line2d_19">
      <g>
       <use style="stroke:#000000;stroke-width:0.6;" x="150.870128" xlink:href="#m87720c4532" y="307.584"/>
      </g>
     </g>
    </g>
    <g id="xtick_20">
     <g id="line2d_20">
      <g>
       <use style="stroke:#000000;stroke-width:0.6;" x="155.217023" xlink:href="#m87720c4532" y="307.584"/>
      </g>
     </g>
    </g>
    <g id="xtick_21">
     <g id="line2d_21">
      <g>
       <use style="stroke:#000000;stroke-width:0.6;" x="158.892271" xlink:href="#m87720c4532" y="307.584"/>
      </g>
     </g>
    </g>
    <g id="xtick_22">
     <g id="line2d_22">
      <g>
       <use style="stroke:#000000;stroke-width:0.6;" x="162.075915" xlink:href="#m87720c4532" y="307.584"/>
      </g>
     </g>
    </g>
    <g id="xtick_23">
     <g id="line2d_23">
      <g>
       <use style="stroke:#000000;stroke-width:0.6;" x="164.884088" xlink:href="#m87720c4532" y="307.584"/>
      </g>
     </g>
    </g>
    <g id="xtick_24">
     <g id="line2d_24">
      <g>
       <use style="stroke:#000000;stroke-width:0.6;" x="183.922043" xlink:href="#m87720c4532" y="307.584"/>
      </g>
     </g>
    </g>
    <g id="xtick_25">
     <g id="line2d_25">
      <g>
       <use style="stroke:#000000;stroke-width:0.6;" x="193.589108" xlink:href="#m87720c4532" y="307.584"/>
      </g>
     </g>
    </g>
    <g id="xtick_26">
     <g id="line2d_26">
      <g>
       <use style="stroke:#000000;stroke-width:0.6;" x="200.448" xlink:href="#m87720c4532" y="307.584"/>
      </g>
     </g>
    </g>
    <g id="xtick_27">
     <g id="line2d_27">
      <g>
       <use style="stroke:#000000;stroke-width:0.6;" x="205.76817" xlink:href="#m87720c4532" y="307.584"/>
      </g>
     </g>
    </g>
    <g id="xtick_28">
     <g id="line2d_28">
      <g>
       <use style="stroke:#000000;stroke-width:0.6;" x="210.115065" xlink:href="#m87720c4532" y="307.584"/>
      </g>
     </g>
    </g>
    <g id="xtick_29">
     <g id="line2d_29">
      <g>
       <use style="stroke:#000000;stroke-width:0.6;" x="213.790313" xlink:href="#m87720c4532" y="307.584"/>
      </g>
     </g>
    </g>
    <g id="xtick_30">
     <g id="line2d_30">
      <g>
       <use style="stroke:#000000;stroke-width:0.6;" x="216.973957" xlink:href="#m87720c4532" y="307.584"/>
      </g>
     </g>
    </g>
    <g id="xtick_31">
     <g id="line2d_31">
      <g>
       <use style="stroke:#000000;stroke-width:0.6;" x="219.782131" xlink:href="#m87720c4532" y="307.584"/>
      </g>
     </g>
    </g>
    <g id="xtick_32">
     <g id="line2d_32">
      <g>
       <use style="stroke:#000000;stroke-width:0.6;" x="238.820085" xlink:href="#m87720c4532" y="307.584"/>
      </g>
     </g>
    </g>
    <g id="xtick_33">
     <g id="line2d_33">
      <g>
       <use style="stroke:#000000;stroke-width:0.6;" x="248.48715" xlink:href="#m87720c4532" y="307.584"/>
      </g>
     </g>
    </g>
    <g id="xtick_34">
     <g id="line2d_34">
      <g>
       <use style="stroke:#000000;stroke-width:0.6;" x="255.346043" xlink:href="#m87720c4532" y="307.584"/>
      </g>
     </g>
    </g>
    <g id="xtick_35">
     <g id="line2d_35">
      <g>
       <use style="stroke:#000000;stroke-width:0.6;" x="260.666213" xlink:href="#m87720c4532" y="307.584"/>
      </g>
     </g>
    </g>
    <g id="xtick_36">
     <g id="line2d_36">
      <g>
       <use style="stroke:#000000;stroke-width:0.6;" x="265.013108" xlink:href="#m87720c4532" y="307.584"/>
      </g>
     </g>
    </g>
    <g id="xtick_37">
     <g id="line2d_37">
      <g>
       <use style="stroke:#000000;stroke-width:0.6;" x="268.688356" xlink:href="#m87720c4532" y="307.584"/>
      </g>
     </g>
    </g>
    <g id="xtick_38">
     <g id="line2d_38">
      <g>
       <use style="stroke:#000000;stroke-width:0.6;" x="271.872" xlink:href="#m87720c4532" y="307.584"/>
      </g>
     </g>
    </g>
    <g id="xtick_39">
     <g id="line2d_39">
      <g>
       <use style="stroke:#000000;stroke-width:0.6;" x="274.680173" xlink:href="#m87720c4532" y="307.584"/>
      </g>
     </g>
    </g>
    <g id="xtick_40">
     <g id="line2d_40">
      <g>
       <use style="stroke:#000000;stroke-width:0.6;" x="293.718128" xlink:href="#m87720c4532" y="307.584"/>
      </g>
     </g>
    </g>
    <g id="xtick_41">
     <g id="line2d_41">
      <g>
       <use style="stroke:#000000;stroke-width:0.6;" x="303.385193" xlink:href="#m87720c4532" y="307.584"/>
      </g>
     </g>
    </g>
    <g id="xtick_42">
     <g id="line2d_42">
      <g>
       <use style="stroke:#000000;stroke-width:0.6;" x="310.244085" xlink:href="#m87720c4532" y="307.584"/>
      </g>
     </g>
    </g>
    <g id="xtick_43">
     <g id="line2d_43">
      <g>
       <use style="stroke:#000000;stroke-width:0.6;" x="315.564255" xlink:href="#m87720c4532" y="307.584"/>
      </g>
     </g>
    </g>
    <g id="xtick_44">
     <g id="line2d_44">
      <g>
       <use style="stroke:#000000;stroke-width:0.6;" x="319.91115" xlink:href="#m87720c4532" y="307.584"/>
      </g>
     </g>
    </g>
    <g id="xtick_45">
     <g id="line2d_45">
      <g>
       <use style="stroke:#000000;stroke-width:0.6;" x="323.586398" xlink:href="#m87720c4532" y="307.584"/>
      </g>
     </g>
    </g>
    <g id="xtick_46">
     <g id="line2d_46">
      <g>
       <use style="stroke:#000000;stroke-width:0.6;" x="326.770043" xlink:href="#m87720c4532" y="307.584"/>
      </g>
     </g>
    </g>
    <g id="xtick_47">
     <g id="line2d_47">
      <g>
       <use style="stroke:#000000;stroke-width:0.6;" x="329.578216" xlink:href="#m87720c4532" y="307.584"/>
      </g>
     </g>
    </g>
    <g id="xtick_48">
     <g id="line2d_48">
      <g>
       <use style="stroke:#000000;stroke-width:0.6;" x="348.61617" xlink:href="#m87720c4532" y="307.584"/>
      </g>
     </g>
    </g>
    <g id="xtick_49">
     <g id="line2d_49">
      <g>
       <use style="stroke:#000000;stroke-width:0.6;" x="358.283235" xlink:href="#m87720c4532" y="307.584"/>
      </g>
     </g>
    </g>
    <g id="xtick_50">
     <g id="line2d_50">
      <g>
       <use style="stroke:#000000;stroke-width:0.6;" x="365.142128" xlink:href="#m87720c4532" y="307.584"/>
      </g>
     </g>
    </g>
    <g id="xtick_51">
     <g id="line2d_51">
      <g>
       <use style="stroke:#000000;stroke-width:0.6;" x="370.462298" xlink:href="#m87720c4532" y="307.584"/>
      </g>
     </g>
    </g>
    <g id="xtick_52">
     <g id="line2d_52">
      <g>
       <use style="stroke:#000000;stroke-width:0.6;" x="374.809193" xlink:href="#m87720c4532" y="307.584"/>
      </g>
     </g>
    </g>
    <g id="xtick_53">
     <g id="line2d_53">
      <g>
       <use style="stroke:#000000;stroke-width:0.6;" x="378.484441" xlink:href="#m87720c4532" y="307.584"/>
      </g>
     </g>
    </g>
    <g id="xtick_54">
     <g id="line2d_54">
      <g>
       <use style="stroke:#000000;stroke-width:0.6;" x="381.668085" xlink:href="#m87720c4532" y="307.584"/>
      </g>
     </g>
    </g>
    <g id="xtick_55">
     <g id="line2d_55">
      <g>
       <use style="stroke:#000000;stroke-width:0.6;" x="384.476258" xlink:href="#m87720c4532" y="307.584"/>
      </g>
     </g>
    </g>
    <g id="xtick_56">
     <g id="line2d_56">
      <g>
       <use style="stroke:#000000;stroke-width:0.6;" x="403.514213" xlink:href="#m87720c4532" y="307.584"/>
      </g>
     </g>
    </g>
    <g id="xtick_57">
     <g id="line2d_57">
      <g>
       <use style="stroke:#000000;stroke-width:0.6;" x="413.181278" xlink:href="#m87720c4532" y="307.584"/>
      </g>
     </g>
    </g>
    <g id="text_8">
     <!-- $\nu$ [Hz] -->
     <defs>
      <path d="M 14.984375 0 
L 8.9375 54.6875 
L 18.609375 54.6875 
L 23.78125 8.796875 
Q 30.8125 14.84375 37.359375 23.25 
Q 42.28125 29.546875 43.5625 35.015625 
Q 44.140625 37.59375 43.890625 42.484375 
Q 43.65625 48.296875 39.75 54.6875 
L 48.828125 54.6875 
L 48.828125 54.6875 
Q 51.375 50.34375 52.390625 44.28125 
Q 53.375 38.71875 52.640625 34.90625 
Q 50.78125 25.34375 42.484375 16.796875 
Q 31.640625 5.671875 24.5625 0 
z
" id="DejaVuSans-Oblique-3bd"/>
      <path id="DejaVuSans-20"/>
      <path d="M 8.59375 75.984375 
L 29.296875 75.984375 
L 29.296875 69 
L 17.578125 69 
L 17.578125 -6.203125 
L 29.296875 -6.203125 
L 29.296875 -13.1875 
L 8.59375 -13.1875 
z
" id="DejaVuSans-5b"/>
      <path d="M 9.8125 72.90625 
L 19.671875 72.90625 
L 19.671875 43.015625 
L 55.515625 43.015625 
L 55.515625 72.90625 
L 65.375 72.90625 
L 65.375 0 
L 55.515625 0 
L 55.515625 34.71875 
L 19.671875 34.71875 
L 19.671875 0 
L 9.8125 0 
z
" id="DejaVuSans-48"/>
      <path d="M 5.515625 54.6875 
L 48.1875 54.6875 
L 48.1875 46.484375 
L 14.40625 7.171875 
L 48.1875 7.171875 
L 48.1875 0 
L 4.296875 0 
L 4.296875 8.203125 
L 38.09375 47.515625 
L 5.515625 47.515625 
z
" id="DejaVuSans-7a"/>
      <path d="M 30.421875 75.984375 
L 30.421875 -13.1875 
L 9.71875 -13.1875 
L 9.71875 -6.203125 
L 21.390625 -6.203125 
L 21.390625 69 
L 9.71875 69 
L 9.71875 75.984375 
z
" id="DejaVuSans-5d"/>
     </defs>
     <g transform="translate(218.52 339.315875)scale(0.12 -0.12)">
      <use transform="translate(0 0.015625)" xlink:href="#DejaVuSans-Oblique-3bd"/>
      <use transform="translate(55.859375 0.015625)" xlink:href="#DejaVuSans-20"/>
      <use transform="translate(87.646484 0.015625)" xlink:href="#DejaVuSans-5b"/>
      <use transform="translate(126.613281 0.015625)" xlink:href="#DejaVuSans-48"/>
      <use transform="translate(201.808594 0.015625)" xlink:href="#DejaVuSans-7a"/>
      <use transform="translate(254.298828 0.015625)" xlink:href="#DejaVuSans-5d"/>
     </g>
    </g>
   </g>
   <g id="matplotlib.axis_2">
    <g id="ytick_1">
     <g id="line2d_58">
      <defs>
       <path d="M 0 0 
L -3.5 0 
" id="m5e169f4ea1" style="stroke:#000000;stroke-width:0.8;"/>
      </defs>
      <g>
       <use style="stroke:#000000;stroke-width:0.8;" x="57.6" xlink:href="#m5e169f4ea1" y="307.584"/>
      </g>
     </g>
     <g id="text_9">
      <!-- $\mathdefault{10^{0}}$ -->
      <g transform="translate(29.48 312.143062)scale(0.12 -0.12)">
       <use transform="translate(0 0.765625)" xlink:href="#DejaVuSans-31"/>
       <use transform="translate(63.623047 0.765625)" xlink:href="#DejaVuSans-30"/>
       <use transform="translate(128.203125 39.046875)scale(0.7)" xlink:href="#DejaVuSans-30"/>
      </g>
     </g>
    </g>
    <g id="ytick_2">
     <g id="line2d_59">
      <g>
       <use style="stroke:#000000;stroke-width:0.8;" x="57.6" xlink:href="#m5e169f4ea1" y="212.88289"/>
      </g>
     </g>
     <g id="text_10">
      <!-- $\mathdefault{10^{1}}$ -->
      <g transform="translate(29.48 217.441952)scale(0.12 -0.12)">
       <use transform="translate(0 0.684375)" xlink:href="#DejaVuSans-31"/>
       <use transform="translate(63.623047 0.684375)" xlink:href="#DejaVuSans-30"/>
       <use transform="translate(128.203125 38.965625)scale(0.7)" xlink:href="#DejaVuSans-31"/>
      </g>
     </g>
    </g>
    <g id="ytick_3">
     <g id="line2d_60">
      <g>
       <use style="stroke:#000000;stroke-width:0.8;" x="57.6" xlink:href="#m5e169f4ea1" y="118.18178"/>
      </g>
     </g>
     <g id="text_11">
      <!-- $\mathdefault{10^{2}}$ -->
      <g transform="translate(29.48 122.740842)scale(0.12 -0.12)">
       <use transform="translate(0 0.765625)" xlink:href="#DejaVuSans-31"/>
       <use transform="translate(63.623047 0.765625)" xlink:href="#DejaVuSans-30"/>
       <use transform="translate(128.203125 39.046875)scale(0.7)" xlink:href="#DejaVuSans-32"/>
      </g>
     </g>
    </g>
    <g id="ytick_4">
     <g id="line2d_61">
      <defs>
       <path d="M 0 0 
L -2 0 
" id="m6ff4f9e385" style="stroke:#000000;stroke-width:0.6;"/>
      </defs>
      <g>
       <use style="stroke:#000000;stroke-width:0.6;" x="57.6" xlink:href="#m6ff4f9e385" y="279.076125"/>
      </g>
     </g>
    </g>
    <g id="ytick_5">
     <g id="line2d_62">
      <g>
       <use style="stroke:#000000;stroke-width:0.6;" x="57.6" xlink:href="#m6ff4f9e385" y="262.400088"/>
      </g>
     </g>
    </g>
    <g id="ytick_6">
     <g id="line2d_63">
      <g>
       <use style="stroke:#000000;stroke-width:0.6;" x="57.6" xlink:href="#m6ff4f9e385" y="250.568251"/>
      </g>
     </g>
    </g>
    <g id="ytick_7">
     <g id="line2d_64">
      <g>
       <use style="stroke:#000000;stroke-width:0.6;" x="57.6" xlink:href="#m6ff4f9e385" y="241.390765"/>
      </g>
     </g>
    </g>
    <g id="ytick_8">
     <g id="line2d_65">
      <g>
       <use style="stroke:#000000;stroke-width:0.6;" x="57.6" xlink:href="#m6ff4f9e385" y="233.892213"/>
      </g>
     </g>
    </g>
    <g id="ytick_9">
     <g id="line2d_66">
      <g>
       <use style="stroke:#000000;stroke-width:0.6;" x="57.6" xlink:href="#m6ff4f9e385" y="227.552278"/>
      </g>
     </g>
    </g>
    <g id="ytick_10">
     <g id="line2d_67">
      <g>
       <use style="stroke:#000000;stroke-width:0.6;" x="57.6" xlink:href="#m6ff4f9e385" y="222.060376"/>
      </g>
     </g>
    </g>
    <g id="ytick_11">
     <g id="line2d_68">
      <g>
       <use style="stroke:#000000;stroke-width:0.6;" x="57.6" xlink:href="#m6ff4f9e385" y="217.216175"/>
      </g>
     </g>
    </g>
    <g id="ytick_12">
     <g id="line2d_69">
      <g>
       <use style="stroke:#000000;stroke-width:0.6;" x="57.6" xlink:href="#m6ff4f9e385" y="184.375015"/>
      </g>
     </g>
    </g>
    <g id="ytick_13">
     <g id="line2d_70">
      <g>
       <use style="stroke:#000000;stroke-width:0.6;" x="57.6" xlink:href="#m6ff4f9e385" y="167.698978"/>
      </g>
     </g>
    </g>
    <g id="ytick_14">
     <g id="line2d_71">
      <g>
       <use style="stroke:#000000;stroke-width:0.6;" x="57.6" xlink:href="#m6ff4f9e385" y="155.86714"/>
      </g>
     </g>
    </g>
    <g id="ytick_15">
     <g id="line2d_72">
      <g>
       <use style="stroke:#000000;stroke-width:0.6;" x="57.6" xlink:href="#m6ff4f9e385" y="146.689655"/>
      </g>
     </g>
    </g>
    <g id="ytick_16">
     <g id="line2d_73">
      <g>
       <use style="stroke:#000000;stroke-width:0.6;" x="57.6" xlink:href="#m6ff4f9e385" y="139.191103"/>
      </g>
     </g>
    </g>
    <g id="ytick_17">
     <g id="line2d_74">
      <g>
       <use style="stroke:#000000;stroke-width:0.6;" x="57.6" xlink:href="#m6ff4f9e385" y="132.851167"/>
      </g>
     </g>
    </g>
    <g id="ytick_18">
     <g id="line2d_75">
      <g>
       <use style="stroke:#000000;stroke-width:0.6;" x="57.6" xlink:href="#m6ff4f9e385" y="127.359266"/>
      </g>
     </g>
    </g>
    <g id="ytick_19">
     <g id="line2d_76">
      <g>
       <use style="stroke:#000000;stroke-width:0.6;" x="57.6" xlink:href="#m6ff4f9e385" y="122.515065"/>
      </g>
     </g>
    </g>
    <g id="ytick_20">
     <g id="line2d_77">
      <g>
       <use style="stroke:#000000;stroke-width:0.6;" x="57.6" xlink:href="#m6ff4f9e385" y="89.673905"/>
      </g>
     </g>
    </g>
    <g id="ytick_21">
     <g id="line2d_78">
      <g>
       <use style="stroke:#000000;stroke-width:0.6;" x="57.6" xlink:href="#m6ff4f9e385" y="72.997868"/>
      </g>
     </g>
    </g>
    <g id="ytick_22">
     <g id="line2d_79">
      <g>
       <use style="stroke:#000000;stroke-width:0.6;" x="57.6" xlink:href="#m6ff4f9e385" y="61.16603"/>
      </g>
     </g>
    </g>
    <g id="ytick_23">
     <g id="line2d_80">
      <g>
       <use style="stroke:#000000;stroke-width:0.6;" x="57.6" xlink:href="#m6ff4f9e385" y="51.988545"/>
      </g>
     </g>
    </g>
    <g id="ytick_24">
     <g id="line2d_81">
      <g>
       <use style="stroke:#000000;stroke-width:0.6;" x="57.6" xlink:href="#m6ff4f9e385" y="44.489993"/>
      </g>
     </g>
    </g>
    <g id="text_12">
     <!-- $|\delta I|$ [pA/sqrt(Hz)] -->
     <defs>
      <path d="M 21 76.421875 
L 21 -23.578125 
L 12.703125 -23.578125 
L 12.703125 76.421875 
z
" id="DejaVuSans-7c"/>
      <path d="M 54.25 63.328125 
Q 49.953125 66.75 38.28125 66.75 
Q 25.921875 66.75 24.8125 61.03125 
Q 23.921875 56.546875 36.375 54.203125 
Q 46.140625 52.390625 50.828125 46.921875 
Q 56.5 40.328125 53.859375 26.8125 
Q 51.3125 13.875 43.171875 6.25 
Q 34.96875 -1.421875 23.25 -1.421875 
Q 11.578125 -1.421875 6.34375 6.25 
Q 1.125 13.875 3.765625 27.296875 
Q 5.671875 37.25 13.921875 45.3125 
Q 17.140625 48.4375 21.140625 50.203125 
Q 14.265625 54.046875 15.625 60.9375 
Q 18.21875 74.21875 39.75 74.21875 
Q 50.53125 74.21875 55.71875 70.796875 
z
M 27.390625 47.75 
Q 23.828125 46.34375 20.40625 42.78125 
Q 15.140625 37.25 13.234375 27.296875 
Q 11.28125 17.390625 14.359375 11.8125 
Q 17.484375 6.203125 24.75 6.203125 
Q 31.9375 6.203125 37.203125 11.859375 
Q 42.53125 17.53125 44.34375 26.8125 
Q 46.1875 36.53125 42.671875 41.21875 
Q 38.921875 46.234375 32.859375 46.78125 
Q 29.78125 47.078125 27.390625 47.75 
z
" id="DejaVuSans-Oblique-3b4"/>
      <path d="M 16.890625 72.90625 
L 26.8125 72.90625 
L 12.59375 0 
L 2.6875 0 
z
" id="DejaVuSans-Oblique-49"/>
      <path d="M 18.109375 8.203125 
L 18.109375 -20.796875 
L 9.078125 -20.796875 
L 9.078125 54.6875 
L 18.109375 54.6875 
L 18.109375 46.390625 
Q 20.953125 51.265625 25.265625 53.625 
Q 29.59375 56 35.59375 56 
Q 45.5625 56 51.78125 48.09375 
Q 58.015625 40.1875 58.015625 27.296875 
Q 58.015625 14.40625 51.78125 6.484375 
Q 45.5625 -1.421875 35.59375 -1.421875 
Q 29.59375 -1.421875 25.265625 0.953125 
Q 20.953125 3.328125 18.109375 8.203125 
z
M 48.6875 27.296875 
Q 48.6875 37.203125 44.609375 42.84375 
Q 40.53125 48.484375 33.40625 48.484375 
Q 26.265625 48.484375 22.1875 42.84375 
Q 18.109375 37.203125 18.109375 27.296875 
Q 18.109375 17.390625 22.1875 11.75 
Q 26.265625 6.109375 33.40625 6.109375 
Q 40.53125 6.109375 44.609375 11.75 
Q 48.6875 17.390625 48.6875 27.296875 
z
" id="DejaVuSans-70"/>
      <path d="M 34.1875 63.1875 
L 20.796875 26.90625 
L 47.609375 26.90625 
z
M 28.609375 72.90625 
L 39.796875 72.90625 
L 67.578125 0 
L 57.328125 0 
L 50.6875 18.703125 
L 17.828125 18.703125 
L 11.1875 0 
L 0.78125 0 
z
" id="DejaVuSans-41"/>
      <path d="M 25.390625 72.90625 
L 33.6875 72.90625 
L 8.296875 -9.28125 
L 0 -9.28125 
z
" id="DejaVuSans-2f"/>
      <path d="M 44.28125 53.078125 
L 44.28125 44.578125 
Q 40.484375 46.53125 36.375 47.5 
Q 32.28125 48.484375 27.875 48.484375 
Q 21.1875 48.484375 17.84375 46.4375 
Q 14.5 44.390625 14.5 40.28125 
Q 14.5 37.15625 16.890625 35.375 
Q 19.28125 33.59375 26.515625 31.984375 
L 29.59375 31.296875 
Q 39.15625 29.25 43.1875 25.515625 
Q 47.21875 21.78125 47.21875 15.09375 
Q 47.21875 7.46875 41.1875 3.015625 
Q 35.15625 -1.421875 24.609375 -1.421875 
Q 20.21875 -1.421875 15.453125 -0.5625 
Q 10.6875 0.296875 5.421875 2 
L 5.421875 11.28125 
Q 10.40625 8.6875 15.234375 7.390625 
Q 20.0625 6.109375 24.8125 6.109375 
Q 31.15625 6.109375 34.5625 8.28125 
Q 37.984375 10.453125 37.984375 14.40625 
Q 37.984375 18.0625 35.515625 20.015625 
Q 33.0625 21.96875 24.703125 23.78125 
L 21.578125 24.515625 
Q 13.234375 26.265625 9.515625 29.90625 
Q 5.8125 33.546875 5.8125 39.890625 
Q 5.8125 47.609375 11.28125 51.796875 
Q 16.75 56 26.8125 56 
Q 31.78125 56 36.171875 55.265625 
Q 40.578125 54.546875 44.28125 53.078125 
z
" id="DejaVuSans-73"/>
      <path d="M 14.796875 27.296875 
Q 14.796875 17.390625 18.875 11.75 
Q 22.953125 6.109375 30.078125 6.109375 
Q 37.203125 6.109375 41.296875 11.75 
Q 45.40625 17.390625 45.40625 27.296875 
Q 45.40625 37.203125 41.296875 42.84375 
Q 37.203125 48.484375 30.078125 48.484375 
Q 22.953125 48.484375 18.875 42.84375 
Q 14.796875 37.203125 14.796875 27.296875 
z
M 45.40625 8.203125 
Q 42.578125 3.328125 38.25 0.953125 
Q 33.9375 -1.421875 27.875 -1.421875 
Q 17.96875 -1.421875 11.734375 6.484375 
Q 5.515625 14.40625 5.515625 27.296875 
Q 5.515625 40.1875 11.734375 48.09375 
Q 17.96875 56 27.875 56 
Q 33.9375 56 38.25 53.625 
Q 42.578125 51.265625 45.40625 46.390625 
L 45.40625 54.6875 
L 54.390625 54.6875 
L 54.390625 -20.796875 
L 45.40625 -20.796875 
z
" id="DejaVuSans-71"/>
      <path d="M 41.109375 46.296875 
Q 39.59375 47.171875 37.8125 47.578125 
Q 36.03125 48 33.890625 48 
Q 26.265625 48 22.1875 43.046875 
Q 18.109375 38.09375 18.109375 28.8125 
L 18.109375 0 
L 9.078125 0 
L 9.078125 54.6875 
L 18.109375 54.6875 
L 18.109375 46.1875 
Q 20.953125 51.171875 25.484375 53.578125 
Q 30.03125 56 36.53125 56 
Q 37.453125 56 38.578125 55.875 
Q 39.703125 55.765625 41.0625 55.515625 
z
" id="DejaVuSans-72"/>
      <path d="M 18.3125 70.21875 
L 18.3125 54.6875 
L 36.8125 54.6875 
L 36.8125 47.703125 
L 18.3125 47.703125 
L 18.3125 18.015625 
Q 18.3125 11.328125 20.140625 9.421875 
Q 21.96875 7.515625 27.59375 7.515625 
L 36.8125 7.515625 
L 36.8125 0 
L 27.59375 0 
Q 17.1875 0 13.234375 3.875 
Q 9.28125 7.765625 9.28125 18.015625 
L 9.28125 47.703125 
L 2.6875 47.703125 
L 2.6875 54.6875 
L 9.28125 54.6875 
L 9.28125 70.21875 
z
" id="DejaVuSans-74"/>
      <path d="M 31 75.875 
Q 24.46875 64.65625 21.28125 53.65625 
Q 18.109375 42.671875 18.109375 31.390625 
Q 18.109375 20.125 21.3125 9.0625 
Q 24.515625 -2 31 -13.1875 
L 23.1875 -13.1875 
Q 15.875 -1.703125 12.234375 9.375 
Q 8.59375 20.453125 8.59375 31.390625 
Q 8.59375 42.28125 12.203125 53.3125 
Q 15.828125 64.359375 23.1875 75.875 
z
" id="DejaVuSans-28"/>
      <path d="M 8.015625 75.875 
L 15.828125 75.875 
Q 23.140625 64.359375 26.78125 53.3125 
Q 30.421875 42.28125 30.421875 31.390625 
Q 30.421875 20.453125 26.78125 9.375 
Q 23.140625 -1.703125 15.828125 -13.1875 
L 8.015625 -13.1875 
Q 14.5 -2 17.703125 9.0625 
Q 20.90625 20.125 20.90625 31.390625 
Q 20.90625 42.671875 17.703125 53.65625 
Q 14.5 64.65625 8.015625 75.875 
z
" id="DejaVuSans-29"/>
     </defs>
     <g transform="translate(22.6 224.688)rotate(-90)scale(0.12 -0.12)">
      <use transform="translate(0 0.578125)" xlink:href="#DejaVuSans-7c"/>
      <use transform="translate(33.691406 0.578125)" xlink:href="#DejaVuSans-Oblique-3b4"/>
      <use transform="translate(94.873047 0.578125)" xlink:href="#DejaVuSans-Oblique-49"/>
      <use transform="translate(124.365234 0.578125)" xlink:href="#DejaVuSans-7c"/>
      <use transform="translate(158.056641 0.578125)" xlink:href="#DejaVuSans-20"/>
      <use transform="translate(189.84375 0.578125)" xlink:href="#DejaVuSans-5b"/>
      <use transform="translate(228.857422 0.578125)" xlink:href="#DejaVuSans-70"/>
      <use transform="translate(292.333984 0.578125)" xlink:href="#DejaVuSans-41"/>
      <use transform="translate(360.742188 0.578125)" xlink:href="#DejaVuSans-2f"/>
      <use transform="translate(394.433594 0.578125)" xlink:href="#DejaVuSans-73"/>
      <use transform="translate(446.533203 0.578125)" xlink:href="#DejaVuSans-71"/>
      <use transform="translate(510.009766 0.578125)" xlink:href="#DejaVuSans-72"/>
      <use transform="translate(551.123047 0.578125)" xlink:href="#DejaVuSans-74"/>
      <use transform="translate(590.332031 0.578125)" xlink:href="#DejaVuSans-28"/>
      <use transform="translate(629.345703 0.578125)" xlink:href="#DejaVuSans-48"/>
      <use transform="translate(704.541016 0.578125)" xlink:href="#DejaVuSans-7a"/>
      <use transform="translate(757.03125 0.578125)" xlink:href="#DejaVuSans-29"/>
      <use transform="translate(796.044922 0.578125)" xlink:href="#DejaVuSans-5d"/>
     </g>
    </g>
   </g>
   <g id="line2d_82">
    <path clip-path="url(#p28bb693878)" d="M 57.6 241.544354 
L 77.993591 241.365765 
L 88.422538 241.0645 
L 95.601368 240.645165 
L 101.172997 240.105809 
L 105.816022 239.438057 
L 109.816166 238.642035 
L 113.387723 237.707399 
L 116.63784 236.630774 
L 119.709379 235.379084 
L 122.638056 233.943351 
L 125.459586 232.3122 
L 128.245401 230.444555 
L 131.031215 228.309237 
L 133.888461 225.835937 
L 136.852853 222.970272 
L 139.995824 219.613722 
L 143.353087 215.696651 
L 147.103222 210.969306 
L 151.460522 205.102862 
L 157.032151 197.203053 
L 172.675572 174.804996 
L 176.747147 169.48561 
L 180.140126 165.402899 
L 183.104518 162.170507 
L 185.783186 159.572023 
L 188.211845 157.520295 
L 190.461926 155.907185 
L 192.533429 154.688009 
L 194.497786 153.782701 
L 196.390711 153.152284 
L 198.212205 152.777249 
L 199.997984 152.634495 
L 201.783762 152.716331 
L 203.569541 153.022208 
L 205.391035 153.561962 
L 207.28396 154.360694 
L 209.248317 155.4366 
L 211.31982 156.830412 
L 213.534185 158.595958 
L 215.927129 160.798461 
L 218.534365 163.512019 
L 221.391611 166.81616 
L 224.606013 170.885674 
L 228.249001 175.868873 
L 232.499154 182.074029 
L 237.606481 189.942995 
L 243.963852 200.166077 
L 252.464158 214.282138 
L 265.214617 235.927488 
L 289.965509 278.46284 
L 329.477395 346.6 
L 329.477395 346.6 
" style="fill:none;stroke:#9467bd;stroke-linecap:square;stroke-width:2;"/>
   </g>
   <g id="line2d_83">
    <path clip-path="url(#p28bb693878)" d="M 57.6 184.528605 
L 77.993591 184.350016 
L 88.422538 184.04875 
L 95.601368 183.629416 
L 101.172997 183.09006 
L 105.816022 182.422307 
L 109.816166 181.626286 
L 113.387723 180.691649 
L 116.63784 179.615025 
L 119.709379 178.363334 
L 122.638056 176.927601 
L 125.459586 175.296451 
L 128.245401 173.428805 
L 131.031215 171.293488 
L 133.888461 168.820187 
L 136.852853 165.954523 
L 139.995824 162.597973 
L 143.353087 158.680901 
L 147.103222 153.953556 
L 151.460522 148.087113 
L 157.032151 140.187304 
L 172.675572 117.789247 
L 176.747147 112.469861 
L 180.140126 108.38715 
L 183.104518 105.154758 
L 185.783186 102.556273 
L 188.211845 100.504545 
L 190.461926 98.891436 
L 192.533429 97.672259 
L 194.497786 96.766951 
L 196.390711 96.136535 
L 198.212205 95.761499 
L 199.997984 95.618746 
L 201.783762 95.700582 
L 203.569541 96.006458 
L 205.391035 96.546213 
L 207.28396 97.344944 
L 209.248317 98.420851 
L 211.31982 99.814662 
L 213.534185 101.580208 
L 215.927129 103.782711 
L 218.534365 106.496269 
L 221.391611 109.800411 
L 224.606013 113.869925 
L 228.249001 118.853123 
L 232.499154 125.058279 
L 237.606481 132.927246 
L 243.963852 143.150328 
L 252.464158 157.266388 
L 265.214617 178.911738 
L 289.965509 221.44709 
L 362.529767 346.6 
L 362.529767 346.6 
" style="fill:none;stroke:#8c564b;stroke-linecap:square;stroke-width:2;"/>
   </g>
   <g id="line2d_84">
    <path clip-path="url(#p28bb693878)" d="M 57.6 82.966343 
L 129.566877 83.07888 
L 143.174509 83.318217 
L 151.603384 83.676892 
L 157.817894 84.155786 
L 162.746643 84.750992 
L 166.889649 85.469095 
L 170.496922 86.316117 
L 173.711323 87.296689 
L 176.64 88.421151 
L 179.354383 89.70101 
L 181.890189 91.139791 
L 184.318848 92.77126 
L 186.676076 94.622643 
L 188.997588 96.7325 
L 191.283384 99.113628 
L 193.569181 101.819175 
L 195.890693 104.918929 
L 198.247921 108.444863 
L 200.67658 112.486675 
L 203.17667 117.083859 
L 205.819622 122.41864 
L 208.605437 128.551125 
L 211.605545 135.704178 
L 214.891377 144.132853 
L 218.49865 154.013793 
L 222.605941 165.935062 
L 227.356112 180.428268 
L 233.106319 198.718126 
L 240.428011 222.790544 
L 250.571233 256.961637 
L 267.143258 313.667425 
L 276.713789 346.6 
L 276.713789 346.6 
" style="fill:none;stroke:#ff7f0e;stroke-linecap:square;stroke-width:2;"/>
   </g>
   <g id="line2d_85">
    <path clip-path="url(#p28bb693878)" d="M 57.6 224.71909 
L 62.135878 229.765747 
L 66.493177 234.285295 
L 70.707615 238.338815 
L 74.814905 241.982269 
L 78.850765 245.265636 
L 82.815194 248.207208 
L 86.779622 250.874072 
L 90.779766 253.296527 
L 94.815626 255.480635 
L 98.922916 257.45169 
L 103.173069 259.243731 
L 107.566085 260.854379 
L 112.173393 262.30633 
L 117.066427 263.613146 
L 122.316616 264.781621 
L 127.995392 265.81423 
L 134.245617 266.720775 
L 141.245869 267.506333 
L 149.246157 268.174219 
L 158.639352 268.727844 
L 170.068335 269.169789 
L 184.747435 269.50326 
L 205.283888 269.731095 
L 239.285113 269.858359 
L 345.753231 270.149349 
L 355.575014 270.466446 
L 362.503834 270.903526 
L 367.932601 271.461739 
L 372.468479 272.147207 
L 376.397192 272.962378 
L 379.897318 273.911569 
L 383.111719 275.010061 
L 386.147543 276.282475 
L 389.040504 277.737144 
L 391.862034 279.407906 
L 394.647849 281.320496 
L 397.433663 283.507139 
L 400.255194 286.007059 
L 403.18387 288.903471 
L 406.25541 292.259355 
L 409.541242 296.185781 
L 413.112799 300.807957 
L 414.72 302.995231 
L 414.72 302.995231 
" style="fill:none;stroke:#1f77b4;stroke-linecap:square;stroke-width:2;"/>
   </g>
   <g id="line2d_86">
    <path clip-path="url(#p28bb693878)" d="M 57.6 132.823389 
L 129.566877 132.935926 
L 143.174509 133.175263 
L 151.603384 133.533938 
L 157.817894 134.012832 
L 162.746643 134.608038 
L 166.889649 135.326141 
L 170.496922 136.173163 
L 173.711323 137.153735 
L 176.64 138.278197 
L 179.354383 139.558056 
L 181.890189 140.996837 
L 184.318848 142.628306 
L 186.676076 144.479689 
L 188.997588 146.589546 
L 191.283384 148.970675 
L 193.569181 151.676221 
L 195.890693 154.775975 
L 198.247921 158.301909 
L 200.67658 162.343721 
L 203.17667 166.940905 
L 205.819622 172.275686 
L 208.605437 178.408171 
L 211.605545 185.561224 
L 214.891377 193.989899 
L 218.49865 203.870839 
L 222.605941 215.792108 
L 227.356112 230.285315 
L 233.106319 248.575172 
L 240.428011 272.64759 
L 250.571233 306.818683 
L 262.214523 346.6 
L 262.214523 346.6 
" style="fill:none;stroke:#2ca02c;stroke-linecap:square;stroke-width:2;"/>
   </g>
   <g id="line2d_87">
    <path clip-path="url(#p28bb693878)" d="M 57.6 230.872368 
L 131.31694 230.759885 
L 145.246013 230.518465 
L 154.174905 230.151223 
L 161.139442 229.647856 
L 167.246805 228.985036 
L 173.354167 228.09402 
L 187.783258 225.860921 
L 190.926229 225.696018 
L 193.640612 225.773877 
L 196.104986 226.066109 
L 198.426499 226.565544 
L 200.67658 227.279344 
L 202.890945 228.217671 
L 205.105311 229.398823 
L 207.391107 230.875822 
L 209.748335 232.669964 
L 212.212709 234.829542 
L 214.855662 237.449126 
L 217.712907 240.604684 
L 220.820162 244.375168 
L 224.284572 248.935668 
L 228.249001 254.53302 
L 232.892025 261.487845 
L 238.535086 270.360282 
L 245.749631 282.142587 
L 255.749991 298.932358 
L 272.072007 326.82349 
L 283.568995 346.6 
L 283.568995 346.6 
" style="fill:none;stroke:#d62728;stroke-linecap:square;stroke-width:2;"/>
   </g>
   <g id="line2d_88">
    <path clip-path="url(#p28bb693878)" d="M 57.6 81.045626 
L 177.60432 81.282869 
L 182.783078 81.614152 
L 186.783222 82.087114 
L 190.140486 82.704582 
L 193.104878 83.471919 
L 195.854977 84.412061 
L 198.462214 85.538426 
L 200.99802 86.87756 
L 203.49811 88.449769 
L 206.033915 90.309764 
L 208.641152 92.503118 
L 211.355536 95.083174 
L 214.212781 98.109883 
L 217.320036 101.734691 
L 220.713015 106.045031 
L 224.498866 111.22393 
L 228.856166 117.574675 
L 234.034923 125.533863 
L 240.463726 135.843836 
L 249.106895 150.154111 
L 264.178866 175.613043 
L 280.429451 202.933204 
L 288.608317 216.257088 
L 294.679964 225.741968 
L 299.644428 233.098056 
L 303.894581 239.007502 
L 307.644716 243.850267 
L 311.073411 247.920644 
L 314.252097 251.354257 
L 317.252205 254.273968 
L 320.145167 256.784643 
L 322.966697 258.945036 
L 325.788227 260.82885 
L 328.645473 262.470242 
L 331.574149 263.897288 
L 334.645689 265.146381 
L 337.931521 266.240855 
L 341.538794 267.204648 
L 345.646085 268.065996 
L 350.610549 268.870583 
L 357.932241 269.805398 
L 368.075464 271.126904 
L 373.004212 272.001946 
L 377.040072 272.938537 
L 380.575914 273.982633 
L 383.790315 275.159215 
L 386.826139 276.506937 
L 389.7191 278.035575 
L 392.54063 279.780542 
L 395.326445 281.767763 
L 398.112259 284.029287 
L 400.969505 286.638263 
L 403.933897 289.65094 
L 407.076868 293.170715 
L 410.434131 297.272772 
L 414.112835 302.128378 
L 414.72 302.962317 
L 414.72 302.962317 
" style="fill:none;stroke:#e377c2;stroke-linecap:square;stroke-width:2;"/>
   </g>
   <g id="line2d_89">
    <path clip-path="url(#p28bb693878)" d="M 57.6 231.19496 
L 81.95802 231.034934 
L 93.136994 230.752309 
L 100.672979 230.349726 
L 106.458902 229.825191 
L 111.209073 229.176627 
L 115.280648 228.40124 
L 118.887921 227.493194 
L 122.209469 226.429473 
L 125.281008 225.215154 
L 128.209685 223.820631 
L 131.066931 222.212688 
L 133.888461 220.365929 
L 136.709991 218.249192 
L 139.567237 215.825358 
L 142.531629 213.016404 
L 145.674599 209.726873 
L 149.103294 205.80622 
L 152.92486 201.088473 
L 157.532169 195.029212 
L 164.46099 185.497201 
L 172.568425 174.428887 
L 176.854293 168.953181 
L 180.318704 164.872753 
L 183.318812 161.672073 
L 185.99748 159.13273 
L 188.426139 157.131163 
L 190.640504 155.584845 
L 192.712007 154.400109 
L 194.676364 153.525772 
L 196.569289 152.923613 
L 198.390783 152.574184 
L 200.176562 152.454853 
L 201.96234 152.558221 
L 203.748119 152.883475 
L 205.569613 153.440463 
L 207.462538 154.254024 
L 209.426895 155.341557 
L 211.534113 156.769289 
L 213.784194 158.571942 
L 216.212853 160.812163 
L 218.855806 163.559967 
L 221.820198 166.974521 
L 225.177462 171.194314 
L 229.106175 176.504206 
L 234.034923 183.56271 
L 242.035212 195.474269 
L 249.928353 207.092265 
L 254.321368 213.172164 
L 257.750063 217.55193 
L 260.535878 220.766684 
L 262.893105 223.163772 
L 264.928893 224.928876 
L 266.678956 226.165942 
L 268.214725 226.992858 
L 269.571917 227.484364 
L 270.821962 227.70393 
L 271.250549 227.721146 
L 271.250594 346.6 
L 271.250594 346.6 
" style="fill:none;stroke:#9467bd;stroke-dasharray:2,3.3;stroke-dashoffset:0;stroke-width:2;"/>
   </g>
   <g id="line2d_90">
    <path clip-path="url(#p28bb693878)" d="M 57.6 174.179211 
L 81.95802 174.019184 
L 93.136994 173.73656 
L 100.672979 173.333977 
L 106.458902 172.809442 
L 111.209073 172.160877 
L 115.280648 171.38549 
L 118.887921 170.477445 
L 122.209469 169.413723 
L 125.281008 168.199405 
L 128.209685 166.804882 
L 131.066931 165.196938 
L 133.888461 163.350179 
L 136.709991 161.233443 
L 139.567237 158.809608 
L 142.531629 156.000654 
L 145.674599 152.711124 
L 149.103294 148.790471 
L 152.92486 144.072723 
L 157.532169 138.013463 
L 164.46099 128.481451 
L 172.568425 117.413137 
L 176.854293 111.937431 
L 180.318704 107.857004 
L 183.318812 104.656323 
L 185.99748 102.11698 
L 188.426139 100.115413 
L 190.640504 98.569095 
L 192.712007 97.384359 
L 194.676364 96.510022 
L 196.569289 95.907864 
L 198.390783 95.558435 
L 200.176562 95.439103 
L 201.96234 95.542472 
L 203.748119 95.867725 
L 205.569613 96.424714 
L 207.462538 97.238275 
L 209.426895 98.325808 
L 211.534113 99.75354 
L 213.784194 101.556193 
L 216.212853 103.796413 
L 218.855806 106.544218 
L 221.820198 109.958771 
L 225.177462 114.178565 
L 229.106175 119.488457 
L 234.034923 126.54696 
L 242.035212 138.458519 
L 249.928353 150.076516 
L 254.321368 156.156414 
L 257.750063 160.536181 
L 260.535878 163.750934 
L 262.893105 166.148022 
L 264.928893 167.913127 
L 266.678956 169.150193 
L 268.214725 169.977108 
L 269.571917 170.468614 
L 270.821962 170.688181 
L 271.250549 170.705397 
L 271.250615 346.6 
L 271.250615 346.6 
" style="fill:none;stroke:#8c564b;stroke-dasharray:2,3.3;stroke-dashoffset:0;stroke-width:2;"/>
   </g>
   <g id="line2d_91">
    <path clip-path="url(#p28bb693878)" d="M 57.6 82.966324 
L 129.566877 83.078861 
L 143.174509 83.318198 
L 151.603384 83.676873 
L 157.817894 84.155766 
L 162.746643 84.750972 
L 166.889649 85.469074 
L 170.496922 86.316095 
L 173.711323 87.296666 
L 176.64 88.421126 
L 179.354383 89.700983 
L 181.890189 91.139763 
L 184.318848 92.77123 
L 186.676076 94.62261 
L 188.997588 96.732464 
L 191.283384 99.113587 
L 193.569181 101.819128 
L 195.890693 104.918874 
L 198.247921 108.444798 
L 200.67658 112.486595 
L 203.17667 117.083759 
L 205.819622 122.41851 
L 208.605437 128.55095 
L 211.605545 135.703929 
L 214.891377 144.132477 
L 218.49865 154.01318 
L 222.605941 165.933957 
L 227.356112 180.425988 
L 233.106319 198.712373 
L 240.499442 223.008183 
L 252.53559 263.450061 
L 260.000144 288.193837 
L 263.250261 298.254209 
L 265.393195 304.219451 
L 266.96468 307.988297 
L 268.214725 310.439894 
L 269.214761 311.937505 
L 270.03622 312.788588 
L 270.714815 313.192366 
L 271.250549 313.298437 
L 271.250562 346.6 
L 271.250562 346.6 
" style="fill:none;stroke:#ff7f0e;stroke-dasharray:2,3.3;stroke-dashoffset:0;stroke-width:2;"/>
   </g>
   <g id="line2d_92">
    <path clip-path="url(#p28bb693878)" d="M 57.6 156.175689 
L 67.60036 156.474694 
L 82.565185 156.679362 
L 109.851881 156.79664 
L 188.49757 156.837046 
L 271.250549 156.850013 
L 271.250621 346.6 
L 271.250621 346.6 
" style="fill:none;stroke:#1f77b4;stroke-dasharray:2,3.3;stroke-dashoffset:0;stroke-width:2;"/>
   </g>
   <g id="line2d_93">
    <path clip-path="url(#p28bb693878)" d="M 57.6 132.82337 
L 129.566877 132.935907 
L 143.174509 133.175244 
L 151.603384 133.533919 
L 157.817894 134.012812 
L 162.746643 134.608018 
L 166.889649 135.32612 
L 170.496922 136.173141 
L 173.711323 137.153712 
L 176.64 138.278172 
L 179.354383 139.55803 
L 181.890189 140.996809 
L 184.318848 142.628276 
L 186.676076 144.479656 
L 188.997588 146.58951 
L 191.283384 148.970633 
L 193.569181 151.676174 
L 195.890693 154.77592 
L 198.247921 158.301844 
L 200.67658 162.343641 
L 203.17667 166.940805 
L 205.819622 172.275556 
L 208.605437 178.407996 
L 211.605545 185.560976 
L 214.891377 193.989523 
L 218.49865 203.870226 
L 222.605941 215.791003 
L 227.356112 230.283034 
L 233.106319 248.569419 
L 240.499442 272.865229 
L 252.53559 313.307107 
L 260.000144 338.050883 
L 262.741986 346.6 
L 262.741986 346.6 
" style="fill:none;stroke:#2ca02c;stroke-dasharray:2,3.3;stroke-dashoffset:0;stroke-width:2;"/>
   </g>
   <g id="line2d_94">
    <path clip-path="url(#p28bb693878)" d="M 57.6 230.702598 
L 131.388371 230.590372 
L 145.317444 230.349538 
L 154.246337 229.983278 
L 161.210873 229.481447 
L 167.318236 228.821026 
L 173.461314 227.928304 
L 187.711827 225.733984 
L 190.890513 225.564296 
L 193.604896 225.638597 
L 196.069271 225.92561 
L 198.390783 226.418202 
L 200.640864 227.123414 
L 202.85523 228.051229 
L 205.069595 229.219606 
L 207.355392 230.680753 
L 209.712619 232.455299 
L 212.212709 234.623213 
L 214.855662 237.214723 
L 217.748623 240.372212 
L 220.927309 244.180271 
L 224.534581 248.860529 
L 228.784734 254.75586 
L 234.177786 262.640932 
L 252.928461 290.398014 
L 256.607165 295.25977 
L 259.607273 298.868473 
L 262.107363 301.541434 
L 264.250297 303.518817 
L 266.107507 304.939187 
L 267.714707 305.9 
L 269.14333 306.503791 
L 270.429091 306.809734 
L 271.250549 306.869785 
L 271.250564 346.6 
L 271.250564 346.6 
" style="fill:none;stroke:#d62728;stroke-dasharray:2,3.3;stroke-dashoffset:0;stroke-width:2;"/>
   </g>
   <g id="line2d_95">
    <path clip-path="url(#p28bb693878)" d="M 57.6 80.447396 
L 177.711467 80.682254 
L 182.925941 81.011991 
L 186.926085 81.479244 
L 190.319064 82.095393 
L 193.319172 82.862687 
L 196.104986 83.803475 
L 198.747939 84.930173 
L 201.31946 86.267469 
L 203.890981 87.856827 
L 206.498218 89.731683 
L 209.212601 91.962095 
L 212.069847 94.601776 
L 215.177102 97.780785 
L 218.677228 101.688921 
L 222.891665 106.743949 
L 229.284752 114.80839 
L 237.035032 124.507316 
L 241.285185 129.467665 
L 244.856742 133.305794 
L 248.071143 136.441644 
L 251.071251 139.061183 
L 253.892781 141.234635 
L 256.607165 143.05032 
L 259.250117 144.554751 
L 261.821638 145.767089 
L 264.321728 146.704688 
L 266.821818 147.402555 
L 269.071899 147.794331 
L 271.143402 147.932096 
L 271.250549 147.932569 
L 271.250624 346.6 
L 271.250624 346.6 
" style="fill:none;stroke:#e377c2;stroke-dasharray:2,3.3;stroke-dashoffset:0;stroke-width:2;"/>
   </g>
   <g id="line2d_96">
    <path clip-path="url(#p28bb693878)" d="M 271.268375 307.584 
L 271.268375 41.472 
" style="fill:none;stroke:#000000;stroke-linecap:square;stroke-width:2;"/>
   </g>
   <g id="patch_3">
    <path d="M 57.6 307.584 
L 57.6 41.472 
" style="fill:none;stroke:#000000;stroke-linecap:square;stroke-linejoin:miter;stroke-width:0.8;"/>
   </g>
   <g id="patch_4">
    <path d="M 414.72 307.584 
L 414.72 41.472 
" style="fill:none;stroke:#000000;stroke-linecap:square;stroke-linejoin:miter;stroke-width:0.8;"/>
   </g>
   <g id="patch_5">
    <path d="M 57.6 307.584 
L 414.72 307.584 
" style="fill:none;stroke:#000000;stroke-linecap:square;stroke-linejoin:miter;stroke-width:0.8;"/>
   </g>
   <g id="patch_6">
    <path d="M 57.6 41.472 
L 414.72 41.472 
" style="fill:none;stroke:#000000;stroke-linecap:square;stroke-linejoin:miter;stroke-width:0.8;"/>
   </g>
   <g id="text_13">
    <!-- $\tau_-=0.7 ms$ -->
    <defs>
     <path d="M 32.859375 9.96875 
Q 34.1875 7.625 39.453125 7.625 
L 43.75 7.625 
L 42.28125 0 
L 36.921875 0 
Q 28.125 0 25 4.6875 
Q 21.921875 9.46875 23.96875 19.828125 
L 29 45.703125 
L 8.453125 45.703125 
L 10.203125 54.6875 
L 60.640625 54.6875 
L 58.890625 45.703125 
L 38.1875 45.703125 
L 33.015625 19.28125 
Q 31.640625 12.203125 32.859375 9.96875 
z
" id="DejaVuSans-Oblique-3c4"/>
     <path d="M 10.59375 35.5 
L 73.1875 35.5 
L 73.1875 27.203125 
L 10.59375 27.203125 
z
" id="DejaVuSans-2212"/>
     <path d="M 10.59375 45.40625 
L 73.1875 45.40625 
L 73.1875 37.203125 
L 10.59375 37.203125 
z
M 10.59375 25.484375 
L 73.1875 25.484375 
L 73.1875 17.1875 
L 10.59375 17.1875 
z
" id="DejaVuSans-3d"/>
     <path d="M 10.6875 12.40625 
L 21 12.40625 
L 21 0 
L 10.6875 0 
z
" id="DejaVuSans-2e"/>
     <path d="M 8.203125 72.90625 
L 55.078125 72.90625 
L 55.078125 68.703125 
L 28.609375 0 
L 18.3125 0 
L 43.21875 64.59375 
L 8.203125 64.59375 
z
" id="DejaVuSans-37"/>
     <path d="M 89.796875 33.015625 
L 83.40625 0 
L 74.421875 0 
L 80.71875 32.71875 
Q 81.109375 34.8125 81.296875 36.328125 
Q 81.5 37.84375 81.5 38.921875 
Q 81.5 43.3125 79.046875 45.75 
Q 76.609375 48.1875 72.21875 48.1875 
Q 65.671875 48.1875 60.546875 43.28125 
Q 55.421875 38.375 53.90625 30.515625 
L 47.90625 0 
L 38.921875 0 
L 45.3125 32.71875 
Q 45.703125 34.515625 45.890625 36.046875 
Q 46.09375 37.59375 46.09375 38.8125 
Q 46.09375 43.265625 43.65625 45.71875 
Q 41.21875 48.1875 36.921875 48.1875 
Q 30.28125 48.1875 25.140625 43.28125 
Q 20.015625 38.375 18.5 30.515625 
L 12.5 0 
L 3.515625 0 
L 14.203125 54.6875 
L 23.1875 54.6875 
L 21.484375 46.1875 
Q 25.140625 50.984375 30.046875 53.484375 
Q 34.96875 56 40.578125 56 
Q 46.53125 56 50.359375 52.875 
Q 54.203125 49.75 54.984375 44.1875 
Q 59.078125 49.953125 64.46875 52.96875 
Q 69.875 56 75.875 56 
Q 82.90625 56 86.734375 51.953125 
Q 90.578125 47.90625 90.578125 40.484375 
Q 90.578125 38.875 90.375 36.9375 
Q 90.1875 35.015625 89.796875 33.015625 
z
" id="DejaVuSans-Oblique-6d"/>
     <path d="M 50 53.078125 
L 48.296875 44.578125 
Q 44.734375 46.53125 40.765625 47.5 
Q 36.8125 48.484375 32.625 48.484375 
Q 25.53125 48.484375 21.453125 46.0625 
Q 17.390625 43.65625 17.390625 39.5 
Q 17.390625 34.671875 26.859375 32.078125 
Q 27.59375 31.890625 27.9375 31.78125 
L 30.8125 30.90625 
Q 39.796875 28.421875 42.796875 25.6875 
Q 45.796875 22.953125 45.796875 18.21875 
Q 45.796875 9.515625 38.890625 4.046875 
Q 31.984375 -1.421875 20.796875 -1.421875 
Q 16.453125 -1.421875 11.671875 -0.578125 
Q 6.890625 0.25 1.125 2 
L 2.875 11.28125 
Q 7.8125 8.734375 12.59375 7.421875 
Q 17.390625 6.109375 21.78125 6.109375 
Q 28.375 6.109375 32.5 8.9375 
Q 36.625 11.765625 36.625 16.109375 
Q 36.625 20.796875 25.78125 23.6875 
L 24.859375 23.921875 
L 21.78125 24.703125 
Q 14.9375 26.515625 11.765625 29.46875 
Q 8.59375 32.421875 8.59375 37.015625 
Q 8.59375 45.75 15.15625 50.875 
Q 21.734375 56 33.015625 56 
Q 37.453125 56 41.671875 55.265625 
Q 45.90625 54.546875 50 53.078125 
z
" id="DejaVuSans-Oblique-73"/>
    </defs>
    <g transform="translate(271.872 267.6672)scale(0.12 -0.12)">
     <use transform="translate(0 0.78125)" xlink:href="#DejaVuSans-Oblique-3c4"/>
     <use transform="translate(73.842773 -15.625)scale(0.7)" xlink:href="#DejaVuSans-2212"/>
     <use transform="translate(168.349609 0.78125)" xlink:href="#DejaVuSans-3d"/>
     <use transform="translate(271.621094 0.78125)" xlink:href="#DejaVuSans-30"/>
     <use transform="translate(335.244141 0.78125)" xlink:href="#DejaVuSans-2e"/>
     <use transform="translate(366.921875 0.78125)" xlink:href="#DejaVuSans-37"/>
     <use transform="translate(430.404297 0.78125)" xlink:href="#DejaVuSans-Oblique-6d"/>
     <use transform="translate(527.816406 0.78125)" xlink:href="#DejaVuSans-Oblique-73"/>
    </g>
   </g>
   <g id="text_14">
    <!-- aliasing penalty: 1.015 -->
    <defs>
     <path d="M 34.28125 27.484375 
Q 23.390625 27.484375 19.1875 25 
Q 14.984375 22.515625 14.984375 16.5 
Q 14.984375 11.71875 18.140625 8.90625 
Q 21.296875 6.109375 26.703125 6.109375 
Q 34.1875 6.109375 38.703125 11.40625 
Q 43.21875 16.703125 43.21875 25.484375 
L 43.21875 27.484375 
z
M 52.203125 31.203125 
L 52.203125 0 
L 43.21875 0 
L 43.21875 8.296875 
Q 40.140625 3.328125 35.546875 0.953125 
Q 30.953125 -1.421875 24.3125 -1.421875 
Q 15.921875 -1.421875 10.953125 3.296875 
Q 6 8.015625 6 15.921875 
Q 6 25.140625 12.171875 29.828125 
Q 18.359375 34.515625 30.609375 34.515625 
L 43.21875 34.515625 
L 43.21875 35.40625 
Q 43.21875 41.609375 39.140625 45 
Q 35.0625 48.390625 27.6875 48.390625 
Q 23 48.390625 18.546875 47.265625 
Q 14.109375 46.140625 10.015625 43.890625 
L 10.015625 52.203125 
Q 14.9375 54.109375 19.578125 55.046875 
Q 24.21875 56 28.609375 56 
Q 40.484375 56 46.34375 49.84375 
Q 52.203125 43.703125 52.203125 31.203125 
z
" id="DejaVuSans-61"/>
     <path d="M 9.421875 75.984375 
L 18.40625 75.984375 
L 18.40625 0 
L 9.421875 0 
z
" id="DejaVuSans-6c"/>
     <path d="M 9.421875 54.6875 
L 18.40625 54.6875 
L 18.40625 0 
L 9.421875 0 
z
M 9.421875 75.984375 
L 18.40625 75.984375 
L 18.40625 64.59375 
L 9.421875 64.59375 
z
" id="DejaVuSans-69"/>
     <path d="M 54.890625 33.015625 
L 54.890625 0 
L 45.90625 0 
L 45.90625 32.71875 
Q 45.90625 40.484375 42.875 44.328125 
Q 39.84375 48.1875 33.796875 48.1875 
Q 26.515625 48.1875 22.3125 43.546875 
Q 18.109375 38.921875 18.109375 30.90625 
L 18.109375 0 
L 9.078125 0 
L 9.078125 54.6875 
L 18.109375 54.6875 
L 18.109375 46.1875 
Q 21.34375 51.125 25.703125 53.5625 
Q 30.078125 56 35.796875 56 
Q 45.21875 56 50.046875 50.171875 
Q 54.890625 44.34375 54.890625 33.015625 
z
" id="DejaVuSans-6e"/>
     <path d="M 45.40625 27.984375 
Q 45.40625 37.75 41.375 43.109375 
Q 37.359375 48.484375 30.078125 48.484375 
Q 22.859375 48.484375 18.828125 43.109375 
Q 14.796875 37.75 14.796875 27.984375 
Q 14.796875 18.265625 18.828125 12.890625 
Q 22.859375 7.515625 30.078125 7.515625 
Q 37.359375 7.515625 41.375 12.890625 
Q 45.40625 18.265625 45.40625 27.984375 
z
M 54.390625 6.78125 
Q 54.390625 -7.171875 48.1875 -13.984375 
Q 42 -20.796875 29.203125 -20.796875 
Q 24.46875 -20.796875 20.265625 -20.09375 
Q 16.0625 -19.390625 12.109375 -17.921875 
L 12.109375 -9.1875 
Q 16.0625 -11.328125 19.921875 -12.34375 
Q 23.78125 -13.375 27.78125 -13.375 
Q 36.625 -13.375 41.015625 -8.765625 
Q 45.40625 -4.15625 45.40625 5.171875 
L 45.40625 9.625 
Q 42.625 4.78125 38.28125 2.390625 
Q 33.9375 0 27.875 0 
Q 17.828125 0 11.671875 7.65625 
Q 5.515625 15.328125 5.515625 27.984375 
Q 5.515625 40.671875 11.671875 48.328125 
Q 17.828125 56 27.875 56 
Q 33.9375 56 38.28125 53.609375 
Q 42.625 51.21875 45.40625 46.390625 
L 45.40625 54.6875 
L 54.390625 54.6875 
z
" id="DejaVuSans-67"/>
     <path d="M 56.203125 29.59375 
L 56.203125 25.203125 
L 14.890625 25.203125 
Q 15.484375 15.921875 20.484375 11.0625 
Q 25.484375 6.203125 34.421875 6.203125 
Q 39.59375 6.203125 44.453125 7.46875 
Q 49.3125 8.734375 54.109375 11.28125 
L 54.109375 2.78125 
Q 49.265625 0.734375 44.1875 -0.34375 
Q 39.109375 -1.421875 33.890625 -1.421875 
Q 20.796875 -1.421875 13.15625 6.1875 
Q 5.515625 13.8125 5.515625 26.8125 
Q 5.515625 40.234375 12.765625 48.109375 
Q 20.015625 56 32.328125 56 
Q 43.359375 56 49.78125 48.890625 
Q 56.203125 41.796875 56.203125 29.59375 
z
M 47.21875 32.234375 
Q 47.125 39.59375 43.09375 43.984375 
Q 39.0625 48.390625 32.421875 48.390625 
Q 24.90625 48.390625 20.390625 44.140625 
Q 15.875 39.890625 15.1875 32.171875 
z
" id="DejaVuSans-65"/>
     <path d="M 32.171875 -5.078125 
Q 28.375 -14.84375 24.75 -17.8125 
Q 21.140625 -20.796875 15.09375 -20.796875 
L 7.90625 -20.796875 
L 7.90625 -13.28125 
L 13.1875 -13.28125 
Q 16.890625 -13.28125 18.9375 -11.515625 
Q 21 -9.765625 23.484375 -3.21875 
L 25.09375 0.875 
L 2.984375 54.6875 
L 12.5 54.6875 
L 29.59375 11.921875 
L 46.6875 54.6875 
L 56.203125 54.6875 
z
" id="DejaVuSans-79"/>
     <path d="M 11.71875 12.40625 
L 22.015625 12.40625 
L 22.015625 0 
L 11.71875 0 
z
M 11.71875 51.703125 
L 22.015625 51.703125 
L 22.015625 39.3125 
L 11.71875 39.3125 
z
" id="DejaVuSans-3a"/>
    </defs>
    <g transform="translate(271.872 280.9728)scale(0.12 -0.12)">
     <use xlink:href="#DejaVuSans-61"/>
     <use x="61.279297" xlink:href="#DejaVuSans-6c"/>
     <use x="89.0625" xlink:href="#DejaVuSans-69"/>
     <use x="116.845703" xlink:href="#DejaVuSans-61"/>
     <use x="178.125" xlink:href="#DejaVuSans-73"/>
     <use x="230.224609" xlink:href="#DejaVuSans-69"/>
     <use x="258.007812" xlink:href="#DejaVuSans-6e"/>
     <use x="321.386719" xlink:href="#DejaVuSans-67"/>
     <use x="384.863281" xlink:href="#DejaVuSans-20"/>
     <use x="416.650391" xlink:href="#DejaVuSans-70"/>
     <use x="480.126953" xlink:href="#DejaVuSans-65"/>
     <use x="541.650391" xlink:href="#DejaVuSans-6e"/>
     <use x="605.029297" xlink:href="#DejaVuSans-61"/>
     <use x="666.308594" xlink:href="#DejaVuSans-6c"/>
     <use x="694.091797" xlink:href="#DejaVuSans-74"/>
     <use x="733.300781" xlink:href="#DejaVuSans-79"/>
     <use x="792.371094" xlink:href="#DejaVuSans-3a"/>
     <use x="826.0625" xlink:href="#DejaVuSans-20"/>
     <use x="857.849609" xlink:href="#DejaVuSans-31"/>
     <use x="921.472656" xlink:href="#DejaVuSans-2e"/>
     <use x="953.259766" xlink:href="#DejaVuSans-30"/>
     <use x="1016.882812" xlink:href="#DejaVuSans-31"/>
     <use x="1080.505859" xlink:href="#DejaVuSans-35"/>
    </g>
   </g>
   <g id="legend_1">
    <g id="patch_7">
     <path d="M 215.64625 131.627 
L 409.12 131.627 
Q 410.72 131.627 410.72 130.027 
L 410.72 47.072 
Q 410.72 45.472 409.12 45.472 
L 215.64625 45.472 
Q 214.04625 45.472 214.04625 47.072 
L 214.04625 130.027 
Q 214.04625 131.627 215.64625 131.627 
z
" style="fill:#ffffff;opacity:0.8;stroke:#cccccc;stroke-linejoin:miter;"/>
    </g>
    <g id="line2d_97">
     <path d="M 217.24625 51.95075 
L 233.24625 51.95075 
" style="fill:none;stroke:#9467bd;stroke-linecap:square;stroke-width:2;"/>
    </g>
    <g id="line2d_98"/>
    <g id="text_15">
     <!-- johnson_det -->
     <defs>
      <path d="M 9.421875 54.6875 
L 18.40625 54.6875 
L 18.40625 -0.984375 
Q 18.40625 -11.421875 14.421875 -16.109375 
Q 10.453125 -20.796875 1.609375 -20.796875 
L -1.8125 -20.796875 
L -1.8125 -13.1875 
L 0.59375 -13.1875 
Q 5.71875 -13.1875 7.5625 -10.8125 
Q 9.421875 -8.453125 9.421875 -0.984375 
z
M 9.421875 75.984375 
L 18.40625 75.984375 
L 18.40625 64.59375 
L 9.421875 64.59375 
z
" id="DejaVuSans-6a"/>
      <path d="M 30.609375 48.390625 
Q 23.390625 48.390625 19.1875 42.75 
Q 14.984375 37.109375 14.984375 27.296875 
Q 14.984375 17.484375 19.15625 11.84375 
Q 23.34375 6.203125 30.609375 6.203125 
Q 37.796875 6.203125 41.984375 11.859375 
Q 46.1875 17.53125 46.1875 27.296875 
Q 46.1875 37.015625 41.984375 42.703125 
Q 37.796875 48.390625 30.609375 48.390625 
z
M 30.609375 56 
Q 42.328125 56 49.015625 48.375 
Q 55.71875 40.765625 55.71875 27.296875 
Q 55.71875 13.875 49.015625 6.21875 
Q 42.328125 -1.421875 30.609375 -1.421875 
Q 18.84375 -1.421875 12.171875 6.21875 
Q 5.515625 13.875 5.515625 27.296875 
Q 5.515625 40.765625 12.171875 48.375 
Q 18.84375 56 30.609375 56 
z
" id="DejaVuSans-6f"/>
      <path d="M 54.890625 33.015625 
L 54.890625 0 
L 45.90625 0 
L 45.90625 32.71875 
Q 45.90625 40.484375 42.875 44.328125 
Q 39.84375 48.1875 33.796875 48.1875 
Q 26.515625 48.1875 22.3125 43.546875 
Q 18.109375 38.921875 18.109375 30.90625 
L 18.109375 0 
L 9.078125 0 
L 9.078125 75.984375 
L 18.109375 75.984375 
L 18.109375 46.1875 
Q 21.34375 51.125 25.703125 53.5625 
Q 30.078125 56 35.796875 56 
Q 45.21875 56 50.046875 50.171875 
Q 54.890625 44.34375 54.890625 33.015625 
z
" id="DejaVuSans-68"/>
      <path d="M 50.984375 -16.609375 
L 50.984375 -23.578125 
L -0.984375 -23.578125 
L -0.984375 -16.609375 
z
" id="DejaVuSans-5f"/>
      <path d="M 45.40625 46.390625 
L 45.40625 75.984375 
L 54.390625 75.984375 
L 54.390625 0 
L 45.40625 0 
L 45.40625 8.203125 
Q 42.578125 3.328125 38.25 0.953125 
Q 33.9375 -1.421875 27.875 -1.421875 
Q 17.96875 -1.421875 11.734375 6.484375 
Q 5.515625 14.40625 5.515625 27.296875 
Q 5.515625 40.1875 11.734375 48.09375 
Q 17.96875 56 27.875 56 
Q 33.9375 56 38.25 53.625 
Q 42.578125 51.265625 45.40625 46.390625 
z
M 14.796875 27.296875 
Q 14.796875 17.390625 18.875 11.75 
Q 22.953125 6.109375 30.078125 6.109375 
Q 37.203125 6.109375 41.296875 11.75 
Q 45.40625 17.390625 45.40625 27.296875 
Q 45.40625 37.203125 41.296875 42.84375 
Q 37.203125 48.484375 30.078125 48.484375 
Q 22.953125 48.484375 18.875 42.84375 
Q 14.796875 37.203125 14.796875 27.296875 
z
" id="DejaVuSans-64"/>
     </defs>
     <g transform="translate(239.64625 54.75075)scale(0.08 -0.08)">
      <use xlink:href="#DejaVuSans-6a"/>
      <use x="27.783203" xlink:href="#DejaVuSans-6f"/>
      <use x="88.964844" xlink:href="#DejaVuSans-68"/>
      <use x="152.34375" xlink:href="#DejaVuSans-6e"/>
      <use x="215.722656" xlink:href="#DejaVuSans-73"/>
      <use x="267.822266" xlink:href="#DejaVuSans-6f"/>
      <use x="329.003906" xlink:href="#DejaVuSans-6e"/>
      <use x="392.382812" xlink:href="#DejaVuSans-5f"/>
      <use x="442.382812" xlink:href="#DejaVuSans-64"/>
      <use x="505.859375" xlink:href="#DejaVuSans-65"/>
      <use x="567.382812" xlink:href="#DejaVuSans-74"/>
     </g>
    </g>
    <g id="line2d_99">
     <path d="M 217.24625 63.91575 
L 233.24625 63.91575 
" style="fill:none;stroke:#8c564b;stroke-linecap:square;stroke-width:2;"/>
    </g>
    <g id="line2d_100"/>
    <g id="text_16">
     <!-- excess -->
     <defs>
      <path d="M 54.890625 54.6875 
L 35.109375 28.078125 
L 55.90625 0 
L 45.3125 0 
L 29.390625 21.484375 
L 13.484375 0 
L 2.875 0 
L 24.125 28.609375 
L 4.6875 54.6875 
L 15.28125 54.6875 
L 29.78125 35.203125 
L 44.28125 54.6875 
z
" id="DejaVuSans-78"/>
      <path d="M 48.78125 52.59375 
L 48.78125 44.1875 
Q 44.96875 46.296875 41.140625 47.34375 
Q 37.3125 48.390625 33.40625 48.390625 
Q 24.65625 48.390625 19.8125 42.84375 
Q 14.984375 37.3125 14.984375 27.296875 
Q 14.984375 17.28125 19.8125 11.734375 
Q 24.65625 6.203125 33.40625 6.203125 
Q 37.3125 6.203125 41.140625 7.25 
Q 44.96875 8.296875 48.78125 10.40625 
L 48.78125 2.09375 
Q 45.015625 0.34375 40.984375 -0.53125 
Q 36.96875 -1.421875 32.421875 -1.421875 
Q 20.0625 -1.421875 12.78125 6.34375 
Q 5.515625 14.109375 5.515625 27.296875 
Q 5.515625 40.671875 12.859375 48.328125 
Q 20.21875 56 33.015625 56 
Q 37.15625 56 41.109375 55.140625 
Q 45.0625 54.296875 48.78125 52.59375 
z
" id="DejaVuSans-63"/>
     </defs>
     <g transform="translate(239.64625 66.71575)scale(0.08 -0.08)">
      <use xlink:href="#DejaVuSans-65"/>
      <use x="61.507812" xlink:href="#DejaVuSans-78"/>
      <use x="120.671875" xlink:href="#DejaVuSans-63"/>
      <use x="175.652344" xlink:href="#DejaVuSans-65"/>
      <use x="237.175781" xlink:href="#DejaVuSans-73"/>
      <use x="289.275391" xlink:href="#DejaVuSans-73"/>
     </g>
    </g>
    <g id="line2d_101">
     <path d="M 217.24625 75.65825 
L 233.24625 75.65825 
" style="fill:none;stroke:#ff7f0e;stroke-linecap:square;stroke-width:2;"/>
    </g>
    <g id="line2d_102"/>
    <g id="text_17">
     <!-- photon -->
     <g transform="translate(239.64625 78.45825)scale(0.08 -0.08)">
      <use xlink:href="#DejaVuSans-70"/>
      <use x="63.476562" xlink:href="#DejaVuSans-68"/>
      <use x="126.855469" xlink:href="#DejaVuSans-6f"/>
      <use x="188.037109" xlink:href="#DejaVuSans-74"/>
      <use x="227.246094" xlink:href="#DejaVuSans-6f"/>
      <use x="288.427734" xlink:href="#DejaVuSans-6e"/>
     </g>
    </g>
    <g id="line2d_103">
     <path d="M 217.24625 87.40075 
L 233.24625 87.40075 
" style="fill:none;stroke:#1f77b4;stroke-linecap:square;stroke-width:2;"/>
    </g>
    <g id="line2d_104"/>
    <g id="text_18">
     <!-- readout -->
     <defs>
      <path d="M 8.5 21.578125 
L 8.5 54.6875 
L 17.484375 54.6875 
L 17.484375 21.921875 
Q 17.484375 14.15625 20.5 10.265625 
Q 23.53125 6.390625 29.59375 6.390625 
Q 36.859375 6.390625 41.078125 11.03125 
Q 45.3125 15.671875 45.3125 23.6875 
L 45.3125 54.6875 
L 54.296875 54.6875 
L 54.296875 0 
L 45.3125 0 
L 45.3125 8.40625 
Q 42.046875 3.421875 37.71875 1 
Q 33.40625 -1.421875 27.6875 -1.421875 
Q 18.265625 -1.421875 13.375 4.4375 
Q 8.5 10.296875 8.5 21.578125 
z
M 31.109375 56 
z
" id="DejaVuSans-75"/>
     </defs>
     <g transform="translate(239.64625 90.20075)scale(0.08 -0.08)">
      <use xlink:href="#DejaVuSans-72"/>
      <use x="41.082031" xlink:href="#DejaVuSans-65"/>
      <use x="102.605469" xlink:href="#DejaVuSans-61"/>
      <use x="163.884766" xlink:href="#DejaVuSans-64"/>
      <use x="227.361328" xlink:href="#DejaVuSans-6f"/>
      <use x="288.542969" xlink:href="#DejaVuSans-75"/>
      <use x="351.921875" xlink:href="#DejaVuSans-74"/>
     </g>
    </g>
    <g id="line2d_105">
     <path d="M 217.24625 99.14325 
L 233.24625 99.14325 
" style="fill:none;stroke:#2ca02c;stroke-linecap:square;stroke-width:2;"/>
    </g>
    <g id="line2d_106"/>
    <g id="text_19">
     <!-- phonon -->
     <g transform="translate(239.64625 101.94325)scale(0.08 -0.08)">
      <use xlink:href="#DejaVuSans-70"/>
      <use x="63.476562" xlink:href="#DejaVuSans-68"/>
      <use x="126.855469" xlink:href="#DejaVuSans-6f"/>
      <use x="188.037109" xlink:href="#DejaVuSans-6e"/>
      <use x="251.416016" xlink:href="#DejaVuSans-6f"/>
      <use x="312.597656" xlink:href="#DejaVuSans-6e"/>
     </g>
    </g>
    <g id="line2d_107">
     <path d="M 217.24625 110.88575 
L 233.24625 110.88575 
" style="fill:none;stroke:#d62728;stroke-linecap:square;stroke-width:2;"/>
    </g>
    <g id="line2d_108"/>
    <g id="text_20">
     <!-- johnson_sh -->
     <g transform="translate(239.64625 113.68575)scale(0.08 -0.08)">
      <use xlink:href="#DejaVuSans-6a"/>
      <use x="27.783203" xlink:href="#DejaVuSans-6f"/>
      <use x="88.964844" xlink:href="#DejaVuSans-68"/>
      <use x="152.34375" xlink:href="#DejaVuSans-6e"/>
      <use x="215.722656" xlink:href="#DejaVuSans-73"/>
      <use x="267.822266" xlink:href="#DejaVuSans-6f"/>
      <use x="329.003906" xlink:href="#DejaVuSans-6e"/>
      <use x="392.382812" xlink:href="#DejaVuSans-5f"/>
      <use x="442.382812" xlink:href="#DejaVuSans-73"/>
      <use x="494.482422" xlink:href="#DejaVuSans-68"/>
     </g>
    </g>
    <g id="line2d_109">
     <path d="M 217.24625 122.85075 
L 233.24625 122.85075 
" style="fill:none;stroke:#e377c2;stroke-linecap:square;stroke-width:2;"/>
    </g>
    <g id="line2d_110"/>
    <g id="text_21">
     <!-- total -->
     <g transform="translate(239.64625 125.65075)scale(0.08 -0.08)">
      <use xlink:href="#DejaVuSans-74"/>
      <use x="39.208984" xlink:href="#DejaVuSans-6f"/>
      <use x="100.390625" xlink:href="#DejaVuSans-74"/>
      <use x="139.599609" xlink:href="#DejaVuSans-61"/>
      <use x="200.878906" xlink:href="#DejaVuSans-6c"/>
     </g>
    </g>
    <g id="line2d_111">
     <path d="M 304.17375 51.95075 
L 320.17375 51.95075 
" style="fill:none;stroke:#9467bd;stroke-dasharray:2,3.3;stroke-dashoffset:0;stroke-width:2;"/>
    </g>
    <g id="line2d_112"/>
    <g id="text_22">
     <!-- aliased_johnson_det -->
     <g transform="translate(326.57375 54.75075)scale(0.08 -0.08)">
      <use xlink:href="#DejaVuSans-61"/>
      <use x="61.279297" xlink:href="#DejaVuSans-6c"/>
      <use x="89.0625" xlink:href="#DejaVuSans-69"/>
      <use x="116.845703" xlink:href="#DejaVuSans-61"/>
      <use x="178.125" xlink:href="#DejaVuSans-73"/>
      <use x="230.224609" xlink:href="#DejaVuSans-65"/>
      <use x="291.748047" xlink:href="#DejaVuSans-64"/>
      <use x="355.224609" xlink:href="#DejaVuSans-5f"/>
      <use x="405.224609" xlink:href="#DejaVuSans-6a"/>
      <use x="433.007812" xlink:href="#DejaVuSans-6f"/>
      <use x="494.189453" xlink:href="#DejaVuSans-68"/>
      <use x="557.568359" xlink:href="#DejaVuSans-6e"/>
      <use x="620.947266" xlink:href="#DejaVuSans-73"/>
      <use x="673.046875" xlink:href="#DejaVuSans-6f"/>
      <use x="734.228516" xlink:href="#DejaVuSans-6e"/>
      <use x="797.607422" xlink:href="#DejaVuSans-5f"/>
      <use x="847.607422" xlink:href="#DejaVuSans-64"/>
      <use x="911.083984" xlink:href="#DejaVuSans-65"/>
      <use x="972.607422" xlink:href="#DejaVuSans-74"/>
     </g>
    </g>
    <g id="line2d_113">
     <path d="M 304.17375 63.91575 
L 320.17375 63.91575 
" style="fill:none;stroke:#8c564b;stroke-dasharray:2,3.3;stroke-dashoffset:0;stroke-width:2;"/>
    </g>
    <g id="line2d_114"/>
    <g id="text_23">
     <!-- aliased_excess -->
     <g transform="translate(326.57375 66.71575)scale(0.08 -0.08)">
      <use xlink:href="#DejaVuSans-61"/>
      <use x="61.279297" xlink:href="#DejaVuSans-6c"/>
      <use x="89.0625" xlink:href="#DejaVuSans-69"/>
      <use x="116.845703" xlink:href="#DejaVuSans-61"/>
      <use x="178.125" xlink:href="#DejaVuSans-73"/>
      <use x="230.224609" xlink:href="#DejaVuSans-65"/>
      <use x="291.748047" xlink:href="#DejaVuSans-64"/>
      <use x="355.224609" xlink:href="#DejaVuSans-5f"/>
      <use x="405.224609" xlink:href="#DejaVuSans-65"/>
      <use x="466.732422" xlink:href="#DejaVuSans-78"/>
      <use x="525.896484" xlink:href="#DejaVuSans-63"/>
      <use x="580.876953" xlink:href="#DejaVuSans-65"/>
      <use x="642.400391" xlink:href="#DejaVuSans-73"/>
      <use x="694.5" xlink:href="#DejaVuSans-73"/>
     </g>
    </g>
    <g id="line2d_115">
     <path d="M 304.17375 75.88075 
L 320.17375 75.88075 
" style="fill:none;stroke:#ff7f0e;stroke-dasharray:2,3.3;stroke-dashoffset:0;stroke-width:2;"/>
    </g>
    <g id="line2d_116"/>
    <g id="text_24">
     <!-- aliased_photon -->
     <g transform="translate(326.57375 78.68075)scale(0.08 -0.08)">
      <use xlink:href="#DejaVuSans-61"/>
      <use x="61.279297" xlink:href="#DejaVuSans-6c"/>
      <use x="89.0625" xlink:href="#DejaVuSans-69"/>
      <use x="116.845703" xlink:href="#DejaVuSans-61"/>
      <use x="178.125" xlink:href="#DejaVuSans-73"/>
      <use x="230.224609" xlink:href="#DejaVuSans-65"/>
      <use x="291.748047" xlink:href="#DejaVuSans-64"/>
      <use x="355.224609" xlink:href="#DejaVuSans-5f"/>
      <use x="405.224609" xlink:href="#DejaVuSans-70"/>
      <use x="468.701172" xlink:href="#DejaVuSans-68"/>
      <use x="532.080078" xlink:href="#DejaVuSans-6f"/>
      <use x="593.261719" xlink:href="#DejaVuSans-74"/>
      <use x="632.470703" xlink:href="#DejaVuSans-6f"/>
      <use x="693.652344" xlink:href="#DejaVuSans-6e"/>
     </g>
    </g>
    <g id="line2d_117">
     <path d="M 304.17375 87.84575 
L 320.17375 87.84575 
" style="fill:none;stroke:#1f77b4;stroke-dasharray:2,3.3;stroke-dashoffset:0;stroke-width:2;"/>
    </g>
    <g id="line2d_118"/>
    <g id="text_25">
     <!-- aliased_readout -->
     <g transform="translate(326.57375 90.64575)scale(0.08 -0.08)">
      <use xlink:href="#DejaVuSans-61"/>
      <use x="61.279297" xlink:href="#DejaVuSans-6c"/>
      <use x="89.0625" xlink:href="#DejaVuSans-69"/>
      <use x="116.845703" xlink:href="#DejaVuSans-61"/>
      <use x="178.125" xlink:href="#DejaVuSans-73"/>
      <use x="230.224609" xlink:href="#DejaVuSans-65"/>
      <use x="291.748047" xlink:href="#DejaVuSans-64"/>
      <use x="355.224609" xlink:href="#DejaVuSans-5f"/>
      <use x="405.224609" xlink:href="#DejaVuSans-72"/>
      <use x="446.306641" xlink:href="#DejaVuSans-65"/>
      <use x="507.830078" xlink:href="#DejaVuSans-61"/>
      <use x="569.109375" xlink:href="#DejaVuSans-64"/>
      <use x="632.585938" xlink:href="#DejaVuSans-6f"/>
      <use x="693.767578" xlink:href="#DejaVuSans-75"/>
      <use x="757.146484" xlink:href="#DejaVuSans-74"/>
     </g>
    </g>
    <g id="line2d_119">
     <path d="M 304.17375 99.81075 
L 320.17375 99.81075 
" style="fill:none;stroke:#2ca02c;stroke-dasharray:2,3.3;stroke-dashoffset:0;stroke-width:2;"/>
    </g>
    <g id="line2d_120"/>
    <g id="text_26">
     <!-- aliased_phonon -->
     <g transform="translate(326.57375 102.61075)scale(0.08 -0.08)">
      <use xlink:href="#DejaVuSans-61"/>
      <use x="61.279297" xlink:href="#DejaVuSans-6c"/>
      <use x="89.0625" xlink:href="#DejaVuSans-69"/>
      <use x="116.845703" xlink:href="#DejaVuSans-61"/>
      <use x="178.125" xlink:href="#DejaVuSans-73"/>
      <use x="230.224609" xlink:href="#DejaVuSans-65"/>
      <use x="291.748047" xlink:href="#DejaVuSans-64"/>
      <use x="355.224609" xlink:href="#DejaVuSans-5f"/>
      <use x="405.224609" xlink:href="#DejaVuSans-70"/>
      <use x="468.701172" xlink:href="#DejaVuSans-68"/>
      <use x="532.080078" xlink:href="#DejaVuSans-6f"/>
      <use x="593.261719" xlink:href="#DejaVuSans-6e"/>
      <use x="656.640625" xlink:href="#DejaVuSans-6f"/>
      <use x="717.822266" xlink:href="#DejaVuSans-6e"/>
     </g>
    </g>
    <g id="line2d_121">
     <path d="M 304.17375 111.77575 
L 320.17375 111.77575 
" style="fill:none;stroke:#d62728;stroke-dasharray:2,3.3;stroke-dashoffset:0;stroke-width:2;"/>
    </g>
    <g id="line2d_122"/>
    <g id="text_27">
     <!-- aliased_johnson_sh -->
     <g transform="translate(326.57375 114.57575)scale(0.08 -0.08)">
      <use xlink:href="#DejaVuSans-61"/>
      <use x="61.279297" xlink:href="#DejaVuSans-6c"/>
      <use x="89.0625" xlink:href="#DejaVuSans-69"/>
      <use x="116.845703" xlink:href="#DejaVuSans-61"/>
      <use x="178.125" xlink:href="#DejaVuSans-73"/>
      <use x="230.224609" xlink:href="#DejaVuSans-65"/>
      <use x="291.748047" xlink:href="#DejaVuSans-64"/>
      <use x="355.224609" xlink:href="#DejaVuSans-5f"/>
      <use x="405.224609" xlink:href="#DejaVuSans-6a"/>
      <use x="433.007812" xlink:href="#DejaVuSans-6f"/>
      <use x="494.189453" xlink:href="#DejaVuSans-68"/>
      <use x="557.568359" xlink:href="#DejaVuSans-6e"/>
      <use x="620.947266" xlink:href="#DejaVuSans-73"/>
      <use x="673.046875" xlink:href="#DejaVuSans-6f"/>
      <use x="734.228516" xlink:href="#DejaVuSans-6e"/>
      <use x="797.607422" xlink:href="#DejaVuSans-5f"/>
      <use x="847.607422" xlink:href="#DejaVuSans-73"/>
      <use x="899.707031" xlink:href="#DejaVuSans-68"/>
     </g>
    </g>
    <g id="line2d_123">
     <path d="M 304.17375 123.74075 
L 320.17375 123.74075 
" style="fill:none;stroke:#e377c2;stroke-dasharray:2,3.3;stroke-dashoffset:0;stroke-width:2;"/>
    </g>
    <g id="line2d_124"/>
    <g id="text_28">
     <!-- aliased_total -->
     <g transform="translate(326.57375 126.54075)scale(0.08 -0.08)">
      <use xlink:href="#DejaVuSans-61"/>
      <use x="61.279297" xlink:href="#DejaVuSans-6c"/>
      <use x="89.0625" xlink:href="#DejaVuSans-69"/>
      <use x="116.845703" xlink:href="#DejaVuSans-61"/>
      <use x="178.125" xlink:href="#DejaVuSans-73"/>
      <use x="230.224609" xlink:href="#DejaVuSans-65"/>
      <use x="291.748047" xlink:href="#DejaVuSans-64"/>
      <use x="355.224609" xlink:href="#DejaVuSans-5f"/>
      <use x="405.224609" xlink:href="#DejaVuSans-74"/>
      <use x="444.433594" xlink:href="#DejaVuSans-6f"/>
      <use x="505.615234" xlink:href="#DejaVuSans-74"/>
      <use x="544.824219" xlink:href="#DejaVuSans-61"/>
      <use x="606.103516" xlink:href="#DejaVuSans-6c"/>
     </g>
    </g>
   </g>
  </g>
  <g id="text_29">
   <!-- 220GHz  $R_n = 12.0 m \Omega$ -->
   <defs>
    <path d="M 59.515625 10.40625 
L 59.515625 29.984375 
L 43.40625 29.984375 
L 43.40625 38.09375 
L 69.28125 38.09375 
L 69.28125 6.78125 
Q 63.578125 2.734375 56.6875 0.65625 
Q 49.8125 -1.421875 42 -1.421875 
Q 24.90625 -1.421875 15.25 8.5625 
Q 5.609375 18.5625 5.609375 36.375 
Q 5.609375 54.25 15.25 64.234375 
Q 24.90625 74.21875 42 74.21875 
Q 49.125 74.21875 55.546875 72.453125 
Q 61.96875 70.703125 67.390625 67.28125 
L 67.390625 56.78125 
Q 61.921875 61.421875 55.765625 63.765625 
Q 49.609375 66.109375 42.828125 66.109375 
Q 29.4375 66.109375 22.71875 58.640625 
Q 16.015625 51.171875 16.015625 36.375 
Q 16.015625 21.625 22.71875 14.15625 
Q 29.4375 6.6875 42.828125 6.6875 
Q 48.046875 6.6875 52.140625 7.59375 
Q 56.25 8.5 59.515625 10.40625 
z
" id="DejaVuSans-47"/>
    <path d="M 25.203125 64.796875 
L 20.21875 38.921875 
L 32.90625 38.921875 
Q 40.375 38.921875 44.984375 43.046875 
Q 49.609375 47.171875 49.609375 53.8125 
Q 49.609375 59.125 46.5 61.953125 
Q 43.40625 64.796875 37.59375 64.796875 
z
M 43.3125 35.015625 
Q 46.4375 34.28125 48.515625 31.390625 
Q 50.59375 28.515625 53.328125 19.921875 
L 59.515625 0 
L 49.125 0 
L 43.40625 18.703125 
Q 41.21875 25.921875 38.328125 28.359375 
Q 35.453125 30.8125 29.5 30.8125 
L 18.609375 30.8125 
L 12.59375 0 
L 2.6875 0 
L 16.890625 72.90625 
L 39.109375 72.90625 
Q 49.21875 72.90625 54.609375 68.328125 
Q 60.015625 63.765625 60.015625 55.171875 
Q 60.015625 47.5625 55.421875 41.984375 
Q 50.828125 36.421875 43.3125 35.015625 
z
" id="DejaVuSans-Oblique-52"/>
    <path d="M 55.71875 33.015625 
L 49.3125 0 
L 40.28125 0 
L 46.6875 32.671875 
Q 47.125 34.96875 47.359375 36.71875 
Q 47.609375 38.484375 47.609375 39.5 
Q 47.609375 43.609375 45.015625 45.890625 
Q 42.4375 48.1875 37.796875 48.1875 
Q 30.5625 48.1875 25.34375 43.375 
Q 20.125 38.578125 18.5 30.328125 
L 12.5 0 
L 3.515625 0 
L 14.109375 54.6875 
L 23.09375 54.6875 
L 21.296875 46.09375 
Q 25.046875 50.828125 30.3125 53.40625 
Q 35.59375 56 41.40625 56 
Q 48.640625 56 52.609375 52.09375 
Q 56.59375 48.1875 56.59375 41.109375 
Q 56.59375 39.359375 56.375 37.359375 
Q 56.15625 35.359375 55.71875 33.015625 
z
" id="DejaVuSans-Oblique-6e"/>
    <path d="M 72.609375 8.6875 
L 72.609375 0 
L 43.3125 0 
L 43.3125 8.6875 
Q 51.953125 13.421875 56.78125 21.53125 
Q 61.625 29.640625 61.625 39.5 
Q 61.625 51.21875 55.171875 58.296875 
Q 48.734375 65.375 38.1875 65.375 
Q 27.640625 65.375 21.171875 58.265625 
Q 14.703125 51.171875 14.703125 39.5 
Q 14.703125 29.640625 19.53125 21.53125 
Q 24.421875 13.421875 33.109375 8.6875 
L 33.109375 0 
L 3.8125 0 
L 3.8125 8.6875 
L 19.390625 8.6875 
Q 11.671875 15.484375 8.109375 22.75 
Q 4.59375 30.03125 4.59375 39.015625 
Q 4.59375 54.546875 13.96875 64.15625 
Q 23.296875 73.78125 38.1875 73.78125 
Q 52.984375 73.78125 62.40625 64.15625 
Q 71.78125 54.59375 71.78125 39.5 
Q 71.78125 30.03125 68.3125 22.796875 
Q 64.84375 15.578125 56.984375 8.6875 
z
" id="DejaVuSans-3a9"/>
   </defs>
   <g transform="translate(151.488 17.85375)scale(0.144 -0.144)">
    <use transform="translate(0 0.78125)" xlink:href="#DejaVuSans-32"/>
    <use transform="translate(63.623047 0.78125)" xlink:href="#DejaVuSans-32"/>
    <use transform="translate(127.246094 0.78125)" xlink:href="#DejaVuSans-30"/>
    <use transform="translate(190.869141 0.78125)" xlink:href="#DejaVuSans-47"/>
    <use transform="translate(268.359375 0.78125)" xlink:href="#DejaVuSans-48"/>
    <use transform="translate(343.554688 0.78125)" xlink:href="#DejaVuSans-7a"/>
    <use transform="translate(396.044922 0.78125)" xlink:href="#DejaVuSans-20"/>
    <use transform="translate(427.832031 0.78125)" xlink:href="#DejaVuSans-20"/>
    <use transform="translate(459.619141 0.78125)" xlink:href="#DejaVuSans-Oblique-52"/>
    <use transform="translate(529.101562 -15.625)scale(0.7)" xlink:href="#DejaVuSans-Oblique-6e"/>
    <use transform="translate(595.683594 0.78125)" xlink:href="#DejaVuSans-3d"/>
    <use transform="translate(698.955078 0.78125)" xlink:href="#DejaVuSans-31"/>
    <use transform="translate(762.578125 0.78125)" xlink:href="#DejaVuSans-32"/>
    <use transform="translate(826.201172 0.78125)" xlink:href="#DejaVuSans-2e"/>
    <use transform="translate(857.988281 0.78125)" xlink:href="#DejaVuSans-30"/>
    <use transform="translate(921.611328 0.78125)" xlink:href="#DejaVuSans-Oblique-6d"/>
    <use transform="translate(1019.023438 0.78125)" xlink:href="#DejaVuSans-3a9"/>
   </g>
   <!-- $L=0.9 \mu H$  $C_c=2.95 pJ/K$ -->
   <defs>
    <path d="M 16.796875 72.90625 
L 26.703125 72.90625 
L 14.203125 8.203125 
L 49.703125 8.203125 
L 48.09375 0 
L 2.6875 0 
z
" id="DejaVuSans-Oblique-4c"/>
    <path d="M 10.984375 1.515625 
L 10.984375 10.5 
Q 14.703125 8.734375 18.5 7.8125 
Q 22.3125 6.890625 25.984375 6.890625 
Q 35.75 6.890625 40.890625 13.453125 
Q 46.046875 20.015625 46.78125 33.40625 
Q 43.953125 29.203125 39.59375 26.953125 
Q 35.25 24.703125 29.984375 24.703125 
Q 19.046875 24.703125 12.671875 31.3125 
Q 6.296875 37.9375 6.296875 49.421875 
Q 6.296875 60.640625 12.9375 67.421875 
Q 19.578125 74.21875 30.609375 74.21875 
Q 43.265625 74.21875 49.921875 64.515625 
Q 56.59375 54.828125 56.59375 36.375 
Q 56.59375 19.140625 48.40625 8.859375 
Q 40.234375 -1.421875 26.421875 -1.421875 
Q 22.703125 -1.421875 18.890625 -0.6875 
Q 15.09375 0.046875 10.984375 1.515625 
z
M 30.609375 32.421875 
Q 37.25 32.421875 41.125 36.953125 
Q 45.015625 41.5 45.015625 49.421875 
Q 45.015625 57.28125 41.125 61.84375 
Q 37.25 66.40625 30.609375 66.40625 
Q 23.96875 66.40625 20.09375 61.84375 
Q 16.21875 57.28125 16.21875 49.421875 
Q 16.21875 41.5 20.09375 36.953125 
Q 23.96875 32.421875 30.609375 32.421875 
z
" id="DejaVuSans-39"/>
    <path d="M -1.3125 -20.796875 
L 13.375 54.6875 
L 22.40625 54.6875 
L 15.765625 20.65625 
Q 15.578125 19.625 15.421875 18.359375 
Q 15.28125 17.09375 15.28125 15.828125 
Q 15.28125 11.28125 18.140625 8.828125 
Q 21 6.390625 26.3125 6.390625 
Q 33.546875 6.390625 37.984375 10.484375 
Q 42.4375 14.59375 44 22.796875 
L 50.203125 54.6875 
L 59.1875 54.6875 
L 51.03125 12.640625 
Q 50.828125 11.71875 50.75 11.03125 
Q 50.6875 10.359375 50.6875 9.8125 
Q 50.6875 8.296875 51.296875 7.59375 
Q 51.90625 6.890625 53.21875 6.890625 
Q 53.71875 6.890625 54.5625 7.125 
Q 55.421875 7.375 56.984375 8.015625 
L 55.609375 0.78125 
Q 53.46875 -0.296875 51.515625 -0.859375 
Q 49.5625 -1.421875 47.703125 -1.421875 
Q 44.484375 -1.421875 42.65625 0.625 
Q 40.828125 2.6875 40.828125 6.296875 
Q 38.09375 2.390625 34.296875 0.484375 
Q 30.515625 -1.421875 25.390625 -1.421875 
Q 20.84375 -1.421875 17.453125 0.671875 
Q 14.0625 2.78125 12.984375 6.203125 
L 7.71875 -20.796875 
z
" id="DejaVuSans-Oblique-3bc"/>
    <path d="M 16.890625 72.90625 
L 26.8125 72.90625 
L 21 43.015625 
L 56.78125 43.015625 
L 62.59375 72.90625 
L 72.515625 72.90625 
L 58.296875 0 
L 48.390625 0 
L 55.171875 34.71875 
L 19.390625 34.71875 
L 12.59375 0 
L 2.6875 0 
z
" id="DejaVuSans-Oblique-48"/>
    <path d="M 69.484375 67.28125 
L 67.484375 56.890625 
Q 62.796875 61.625 57.546875 63.921875 
Q 52.296875 66.21875 46.1875 66.21875 
Q 37.84375 66.21875 31.515625 62.203125 
Q 25.203125 58.203125 20.609375 50 
Q 17.671875 44.734375 16.125 38.84375 
Q 14.59375 32.953125 14.59375 27 
Q 14.59375 17.046875 19.75 11.8125 
Q 24.90625 6.59375 34.71875 6.59375 
Q 41.5 6.59375 47.75 8.765625 
Q 54 10.9375 59.90625 15.28125 
L 57.625 3.609375 
Q 51.8125 1.125 45.875 -0.140625 
Q 39.9375 -1.421875 33.984375 -1.421875 
Q 19.96875 -1.421875 12.078125 6.1875 
Q 4.203125 13.8125 4.203125 27.390625 
Q 4.203125 36.078125 7.203125 44.46875 
Q 10.203125 52.875 15.828125 59.8125 
Q 21.78125 67.1875 29.421875 70.703125 
Q 37.0625 74.21875 47.21875 74.21875 
Q 53.46875 74.21875 59.0625 72.484375 
Q 64.65625 70.75 69.484375 67.28125 
z
" id="DejaVuSans-Oblique-43"/>
    <path d="M 53.609375 52.59375 
L 51.8125 43.703125 
Q 48.578125 46.046875 44.9375 47.21875 
Q 41.3125 48.390625 37.40625 48.390625 
Q 33.109375 48.390625 29.21875 46.875 
Q 25.34375 45.359375 22.703125 42.578125 
Q 18.5 38.328125 16.203125 32.609375 
Q 13.921875 26.90625 13.921875 20.796875 
Q 13.921875 13.421875 17.609375 9.8125 
Q 21.296875 6.203125 28.8125 6.203125 
Q 32.515625 6.203125 36.6875 7.328125 
Q 40.875 8.453125 45.40625 10.6875 
L 43.703125 1.8125 
Q 39.796875 0.203125 35.671875 -0.609375 
Q 31.546875 -1.421875 27.203125 -1.421875 
Q 16.3125 -1.421875 10.453125 4.015625 
Q 4.59375 9.46875 4.59375 19.578125 
Q 4.59375 28.078125 7.640625 35.234375 
Q 10.6875 42.390625 16.703125 48.09375 
Q 20.796875 52 26.3125 54 
Q 31.84375 56 38.375 56 
Q 42.1875 56 45.9375 55.140625 
Q 49.703125 54.296875 53.609375 52.59375 
z
" id="DejaVuSans-Oblique-63"/>
    <path d="M 49.609375 33.6875 
Q 49.609375 40.875 46.484375 44.671875 
Q 43.359375 48.484375 37.5 48.484375 
Q 33.5 48.484375 29.859375 46.4375 
Q 26.21875 44.390625 23.390625 40.484375 
Q 20.609375 36.625 18.9375 31.15625 
Q 17.28125 25.6875 17.28125 20.3125 
Q 17.28125 13.484375 20.40625 9.796875 
Q 23.53125 6.109375 29.296875 6.109375 
Q 33.546875 6.109375 37.1875 8.109375 
Q 40.828125 10.109375 43.40625 13.921875 
Q 46.1875 17.921875 47.890625 23.34375 
Q 49.609375 28.765625 49.609375 33.6875 
z
M 21.78125 46.390625 
Q 25.390625 51.125 30.296875 53.5625 
Q 35.203125 56 41.21875 56 
Q 49.609375 56 54.25 50.5 
Q 58.890625 45.015625 58.890625 35.109375 
Q 58.890625 27 56 19.65625 
Q 53.125 12.3125 47.703125 6.5 
Q 44.09375 2.640625 39.546875 0.609375 
Q 35.015625 -1.421875 29.984375 -1.421875 
Q 24.171875 -1.421875 20.21875 1 
Q 16.265625 3.421875 14.3125 8.203125 
L 8.6875 -20.796875 
L -0.296875 -20.796875 
L 14.40625 54.6875 
L 23.390625 54.6875 
z
" id="DejaVuSans-Oblique-70"/>
    <path d="M 16.703125 72.90625 
L 26.609375 72.90625 
L 13.375 5.078125 
Q 10.796875 -8.15625 4.65625 -14.078125 
Q -1.46875 -20.015625 -12.5 -20.015625 
L -16.40625 -20.015625 
L -14.796875 -11.71875 
L -11.71875 -11.71875 
Q -5.125 -11.71875 -1.703125 -7.953125 
Q 1.703125 -4.203125 3.515625 5.078125 
z
" id="DejaVuSans-Oblique-4a"/>
    <path d="M 16.890625 72.90625 
L 26.8125 72.90625 
L 20.796875 42.1875 
L 59.078125 72.90625 
L 72.21875 72.90625 
L 28.90625 38.09375 
L 60.59375 0 
L 48.578125 0 
L 19.484375 35.5 
L 12.59375 0 
L 2.6875 0 
z
" id="DejaVuSans-Oblique-4b"/>
   </defs>
   <g transform="translate(144.792 33.9786)scale(0.144 -0.144)">
    <use transform="translate(0 0.78125)" xlink:href="#DejaVuSans-Oblique-4c"/>
    <use transform="translate(75.195312 0.78125)" xlink:href="#DejaVuSans-3d"/>
    <use transform="translate(178.466797 0.78125)" xlink:href="#DejaVuSans-30"/>
    <use transform="translate(242.089844 0.78125)" xlink:href="#DejaVuSans-2e"/>
    <use transform="translate(273.876953 0.78125)" xlink:href="#DejaVuSans-39"/>
    <use transform="translate(337.5 0.78125)" xlink:href="#DejaVuSans-Oblique-3bc"/>
    <use transform="translate(401.123047 0.78125)" xlink:href="#DejaVuSans-Oblique-48"/>
    <use transform="translate(476.318359 0.78125)" xlink:href="#DejaVuSans-20"/>
    <use transform="translate(508.105469 0.78125)" xlink:href="#DejaVuSans-20"/>
    <use transform="translate(539.892578 0.78125)" xlink:href="#DejaVuSans-Oblique-43"/>
    <use transform="translate(609.716797 -15.625)scale(0.7)" xlink:href="#DejaVuSans-Oblique-63"/>
    <use transform="translate(670.419922 0.78125)" xlink:href="#DejaVuSans-3d"/>
    <use transform="translate(773.691406 0.78125)" xlink:href="#DejaVuSans-32"/>
    <use transform="translate(837.314453 0.78125)" xlink:href="#DejaVuSans-2e"/>
    <use transform="translate(869.101562 0.78125)" xlink:href="#DejaVuSans-39"/>
    <use transform="translate(932.724609 0.78125)" xlink:href="#DejaVuSans-35"/>
    <use transform="translate(996.347656 0.78125)" xlink:href="#DejaVuSans-Oblique-70"/>
    <use transform="translate(1059.824219 0.78125)" xlink:href="#DejaVuSans-Oblique-4a"/>
    <use transform="translate(1089.316406 0.78125)" xlink:href="#DejaVuSans-2f"/>
    <use transform="translate(1123.007812 0.78125)" xlink:href="#DejaVuSans-Oblique-4b"/>
   </g>
   <!--  -->
   <g transform="translate(230.4 50.1327)scale(0.144 -0.144)"/>
  </g>
 </g>
 <defs>
  <clipPath id="p28bb693878">
   <rect height="266.112" width="357.12" x="57.6" y="41.472"/>
  </clipPath>
 </defs>
</svg>
